*** Life<Cell> 42x24 ***

Generation = 0, Population = 4.
------------------------
------------------------
------------------------
------------------------
------------------------
------------------0-----
------------------------
------------------------
------------------------
------------------------
-------------0----------
------------------------
------------------------
------------------------
------------------------
-------0----------------
------------------------
------------------------
------------------------
------------------------
------------------------
------------------------
------------------------
------------------------
------------------------
------------------------
------------------------
------------------------
------------------------
------------------------
------------------------
---------0--------------
------------------------
------------------------
------------------------
------------------------
------------------------
------------------------
------------------------
------------------------
------------------------
------------------------

Generation = 5, Population = 56.
------------------0-----
-----------------0-0----
------------------0-----
------------------------
--------------0-------0-
---------------0-----0-0
------------0---------0-
-------------0----------
------------------0-----
---------0---------0----
-------00-0-----0-------
------0-00-------0------
-------0----------------
-------------0----------
---0-------00-0---------
--0-0-----0-00----------
---0-------0------------
------------------------
-------0----------------
------0-0---------------
-------0----------------
------------------------
------------------------
------------------------
------------------------
------------------------
---------0--------------
--------0-0-------------
---------0--------------
------------------------
-----0-------0----------
----0-0-----0-0---------
-----0-------0----------
------------------------
---------0--------------
--------0-0-------------
---------0--------------
------------------------
------------------------
------------------------
------------------------
------------------------

Generation = 10, Population = 55.
-------------0----------
----------------0---0---
-----------0---0--------
----------0-------0---0-
-------------0----------
-------00---0-------0---
------------------------
-----0---00-----------0-
-----0---------------0--
-------1----------------
---0---.-----------0---0
---------.--------0-----
-----0---------------0--
---------------00---0---
-----------.------------
-------------.---00-----
-------------1----------
---------------0--------
-----------0---0--------
------------------------
-------------0----------
-------0-0--------------
------------------------
-----0-0-0-0------------
------------------------
-------0-0--------------
------------------------
------------------------
------------------------
-0---------------0------
------------------------
---0-----------0---0----
------------------------
-0---------------0------
------------------------
------------------------
------------------------
---------0--------------
------------------------
-------0---0------------
------------------------
---------0--------------

*** Life<Cell> 14x3 ***

Generation = 0, Population = 15.
0--
-00
---
0--
--0
00-
0--
---
00-
-0-
0--
0--
-00
---

Generation = 5, Population = 24.
0-.
***
1-.
-00
0--
0-.
*00
*0-
*--
**0
1--
.--
01*
1*-

Generation = 10, Population = 15.
**.
*..
*-.
-.-
.-.
--.
**.
*--
.-*
*.-
*-1
*.*
-.*
-.*

*** Life<Cell> 50x3 ***

Generation = 0, Population = 1.
---
---
---
---
---
---
---
---
---
---
---
---
---
---
---
---
---
---
---
---
---
---
---
---
---
---
---
---
---
---
---
---
---
---
---
---
---
---
---
---
---
---
---
---
0--
---
---
---
---
---

Generation = 5, Population = 6.
---
---
---
---
---
---
---
---
---
---
---
---
---
---
---
---
---
---
---
---
---
---
---
---
---
---
---
---
---
---
---
---
---
---
---
---
---
---
---
0--
-0-
0--
---
---
---
---
---
0--
-0-
0--

Generation = 10, Population = 7.
---
---
---
---
---
---
---
---
---
---
---
---
---
---
---
---
---
---
---
---
---
---
---
---
---
---
---
---
---
---
---
---
---
---
0--
---
0-0
---
0--
---
---
---
---
---
---
---
0--
---
0-0
---

*** Life<Cell> 27x32 ***

Generation = 0, Population = 7.
--------------------------------
--------------------------------
--------------------------------
-----------------------------0--
--------------------------------
--------------------------------
--------0-----------------------
-----0--------------------------
-----------------------------0--
-----------------0--------------
--------------------------------
--------------------0-----------
--------------------------------
--------------------------------
--------------------------------
--------------------------------
--------------------------------
--------------------------------
--------------------------------
--------------------------------
--------------0-----------------
--------------------------------
--------------------------------
--------------------------------
--------------------------------
--------------------------------
--------------------------------

Generation = 5, Population = 106.
--------------------------------
--------0-----------------------
-----0-0-0---------------0-----0
----0-0-0---------------0-0--00-
-----0-----------0-------0--0-00
----0-------0---0-0----------1--
-0-0-0---0-0-0---0--0--------1--
0-0-0---0-0-0------0-0---0--0-00
-0-------0---0------00--0-0--00-
--------0---0-0-----1-0--0-----0
-----0-0-0---0--0----0--0-------
----0-0-0------0-1-----0-0---0--
-----0----------00------0---0-0-
----------------0-0----------0--
-----------------0--0-----------
--------------0----0-0----------
-------------0-0----0-----------
--------------0-----------------
--------------------------------
----------0-------0-------------
---------0-0-----0-0------------
----------0-------0-------------
--------------------------------
--------------0-----------------
-------------0-0----------------
--------------0-----------------
--------------------------------

Generation = 10, Population = 132.
------0-0-0----------------0-0-0
---------------0---000-----0----
--------0--------------------1--
-----------------001--10-0-.-.--
0---------------0----------*0-01
-0-----------0------10----01..--
0-0-----------0---0-0-----01..--
---0-----0-0---0----1*1--0-*0-01
0---------------0001*111-1-.-.--
-0-----0---000--1--..*-----100--
--------------000111-00----0----
---------00----1**.--1---001-.10
--------0---1--1-1-00-----------
-----0------0---.-----------00--
------0---0---0--0-----------0--
---0---0---------1--------------
--------0------------------0---0
-----0---------0---00-----------
------0---------------0------0--
-----------------00---1---------
----0---0-----------1---0-------
--------------------0-----------
------0---------------0---------
--------------------------------
--------------0-----------------
--------------------------------
------------0-0-0---------------

*** Life<Cell> 34x36 ***

Generation = 0, Population = 16.
-------------------------0----------
--------------0---------------------
------------------------------------
------------------------------------
------------------------------------
------------------------------------
---------------------------------0--
---------------------------------0--
------------------------------------
-----------0------------------------
---------------0--0-----------------
------------------------------------
------------------------------------
------------------------------------
------------------------------------
------------------------------------
---------0--------------------------
------------------------------------
------------------------------------
-------------------------------0----
--------0---------------------------
--------------0---------------------
------------------------------------
------------------------------------
-----------------------------0------
------------------------0-----------
-------------------------------0----
------------------------------------
---------0--------------------------
------------------------------------
------------------------------------
------------------------------------
-------------0----------------------
------------------------------------

Generation = 5, Population = 210.
----------0---0---0-0-0-----0-0-----
---------0-0-0-0-0-0-0---0---0---0--
----------0---0---0-----0-0-----010-
--------------------------------0*0-
-----------0--0---------0-0------1--
----------0-00----0------0---0---.-0
-----------0----00-0--------010---0.
---------------0--0---------010---0.
-------0-------0-------------0---.-0
------0-0--0----0--0--0----------1--
-------0--0-01--..0-00-0--------0*0-
---------0-0--0----0--0---------010-
--------0-00---------------------0--
---------00-0--0--0-----------------
-----------0--0-00-0-----------0----
-----0--0----0-0--0-----------0-0---
----0-00-0--0------------------0----
-----0--0------0--------------------
--------------0------------0-------0
----0----0--0-------------0-00----0-
---0-0--0--0-0----0-----0--00-0----0
----0------00----0-0---0-0---0-0----
----------0-------0-----0-----0*0---
--------00---------------0----0100--
-------0110---0-----0---0-0-0--00-0-
--------00---0-0---0-0---0---0---0-0
--------------0-----0-----0-------0-
-----0---------------------0-0-----0
----0-0-----------------0---0-0-----
-----0-----------------0-0---0-0----
------------------------0-----0-0---
-------------0---0-------------0----
------------0-0-0-0-----------------
-------------0---0------------------

Generation = 10, Population = 216.
-----------------010----------------
----0---00---0------0---0--------.-0
-------------0--1---0----------10.-*
------0----1--0-------0-------0*1.--
---------------0--1--------------.--
------------.---1--------0---.1*-*--
---------0------1.-------1----0*01..
---0-------------1-0---0-.-1--0*01..
----------11-01-*0*-------10-.1*-*--
-0---0-------.0100-*10---1-----1-.--
-----0------..11..-.*.--1---0-011*--
---0-------1-1-----10--------0-*1.-*
------0*------*-.1*----0--0------*-0
---------.--01--11-------------0-*--
-0------1-------.*-----------0-0---0
-----------1--0---------0------0---0
---0--..----------10-------0-----1--
---------0---0--------01--0---------
00------..---1------0------------1--
------0----0---------01-*1---.-----0
0-0----1-.-.--11-----------.--010---
----0---1---.-------0--10----0-1----
0------------0--0----0------0-0.0-00
------0---------0-----0------1-101--
-------.-.-----0---0----------0-1--0
--------------0---0-----------1---0-
-0------11-------0-------0-----1----
--------------0-0------------0--11--
---0--0---00-------0---0---------0--
------------0---0--------------0----
-0---0--00---0---0---0-------0------
--------------0---------0-----------
---0-------0-------0---0---0---0----
----------------------0-0-0---------

*** Life<Cell> 25x12 ***

Generation = 0, Population = 35.
0--0---0----
---------0--
0--------000
------------
-----0------
-------0--0-
------------
------0-----
--0----0----
------------
0------0----
---0------0-
------------
-----0-0----
--0--------0
------0-----
0--0----0---
-------0--0-
------------
---0-------0
--000-----0-
------------
-----------0
------------
------------

Generation = 5, Population = 124.
.-**---.--.-
----0--.0.-.
--.*-1-0.-1*
-0--0-*1-*10
1---0-0.0*.1
00-*0-.-**1-
--0----.0-*-
00*-100--00-
-0-1-**1----
0----*---0--
--0**-0-----
0-0-00-*10-0
-01-0---1--0
--0-0--10-**
-0-*00---1--
-0-00-0-*---
-.--1--*--*0
---*01---*1*
-0---0-0--.0
0-01-1--0.--
......-*0-10
0--.--0-0-11
---1--01-.-0
---*---0-0-1
-01110---0*-

Generation = 10, Population = 126.
...*--0.--.-
--1*-*1*-**.
-*.*0-.*.0**
*.--*-*1-...
*--11-1.-...
-.**-**...-*
*-*01.-.*1.*
-.....--...*
-.*.-*..*-.1
1---1*..*0*-
1-1*.*-.1*-.
11*.1*....0*
-...-1-.*-*-
-.-*1-*.*1..
0.0.*..11111
-*1-..0*.-.*
*.*.*.1*--*0
0.-.**-1-**.
-----101.-**
**-.-*1-...0
*.....1.10.-
-.*.1-*-.-..
*-..---*0*-*
-.1*---.1-**
.11.--1-*-.0

*** Life<Cell> 5x36 ***

Generation = 0, Population = 44.
--------0---00-0-----0---0--00------
0---0-----00--000-0-0-0-0--00-------
-----00-------0----00-----000-------
-00----------------------00---------
0----0--0---00-0-----0-000--0-------

Generation = 5, Population = 90.
-000--1-1-0-.1--*10-*10101*1-**1-10-
0-*000--..---011-0--*001-0.-1---1---
.110-*1*--0----1*-1-0*.----10*.*-0--
--*10--0-0-000.---10**..-*-0--------
--.-0-**1-0***--100**0-*1-1---00-0--

Generation = 10, Population = 75.
.**0*0*11.--.*.-****.**.-.*.1*..1.**
01*-*.*-.*...-1-..--.-.1.1*1*-.-*---
.**.-.-.---*-0.-...*.**-**-*-*..01.-
....-..00*1*.*.*--.-****-*-.-.001---
0-.-1-...-****.*.1.*.--..--0-0.*.1--

*** Life<Cell> 5x13 ***

Generation = 0, Population = 33.
00-0000-000-0
00--000----00
---0--00-0-0-
0-----0---0-0
-0--00-00--00

Generation = 5, Population = 41.
1--***01*0.-.
0*-011*1-10-*
*1-1-*.*-*1-*
1---***0001-.
-1***1-..*0.-

Generation = 10, Population = 24.
.-...****0.0.
*.-*.-..**11.
*.-.-......**
*.-.....*-...
-*.***-.*.-**

*** Life<Cell> 28x15 ***

Generation = 0, Population = 29.
--0--------0---
---------------
---------------
---------------
---------------
--------------0
---------------
---------------
-------0-------
----0-0-0------
--------0------
---0---------0-
--------------0
-0-------------
--0----------0-
---------------
---------0-----
----00---------
---------------
---------------
---------------
0----------0---
00----0--------
---------------
--0-0--0-------
-0-------0-----
---------------
-------0----0--

Generation = 5, Population = 193.
-0---0110-----0
0-0---00---0-0-
-0-0------0-0-0
-------0-------
-0-00----------
--00---01--0-0-
---00-00100-00-
--0*0---1--00--
00-*----------*
1-*1*0--.0.0*01
0-*-10-.-010---
--0-.-0*.*--0*0
-0-----*1-1-.--
--0--010*00-0.-
---0-01--10-011
0-0-010-00--0--
---00-0-00-00-*
000.-1.0**--0-0
*-*0-0-000-00-0
10--1-00-0---0-
.11---0*-*0----
*01001-*-1-----
-*-0*-0.---00--
11-000----0--0-
001-1.---.0100-
--00--0---0***0
-100-0-*00--000
-1--0-01**--00-

Generation = 10, Population = 185.
-01**-..1--*10-
--00-001*11-010
---1*0-0*--0--1
----1010*--0--0
--1-*---1--00-1
-1..----1-0--.-
--*----.1---100
-*..*1-..-01*--
**0..-..*.11..*
**...101.*...1*
*-.--0-..11-111
-1.-*--...*1..-
*1.0-*..1**-...
*00*.**.**---.-
0*10-..-..-1.1.
100.1..-.--0*-0
-.*.1.1*.*01.-*
-1-**.*0..**-.1
.-..-1-..*----*
----*.---11-**0
*.*.*--*-.1100-
*0*.*.0*1.*.--0
*.--.-0..0**.0.
-*10---*-..-1.1
-*.1*...*.....-
*.-.--1.--0..*-
11.00-..*0-0.10
-*1101-*..--0--

*** Life<Cell> 10x35 ***

Generation = 0, Population = 27.
----------0------------------0----0
-0---------------0-----------------
------0------0---------------------
0-------------0---0--0---0---------
-----------------------------------
--0-----------0-----------------0--
---0---------------0--0---0--------
-----0----0------------------------
----------0---0-------0-----------0
-------------------0-------0-------

Generation = 5, Population = 167.
--0--0------1*-0-0---0--0-0--0--**0
-0*-0-0--0--0-*00**10----00--000*-0
-011----0-1--0--0-0-0010---0010-00-
-.*0*10--0---0100-1-.**00---0-0---0
000-000---0--0*0---1--10-0-0-10---0
1*0--01--0.0-0100*110--0---1*-0--0.
-----***00.-0---0---..**0--000-0--1
111--0--0-1--0.0-0*.0-000---0---1-0
000---10-01---00--0.---0-----0-0*--
-0-00----0-0-0110-----0---0----1-00

Generation = 10, Population = 155.
1-.-1-----0-..0.1.*-*-10--10-.--**1
*-..-.110-01*-**.**-*-101-001.--.**
0*-...00-0-.0-..-----1.-1--1****1.-
*...***0-1000-..0..***.*.-1.110*11-
-*1.11*--.-*--..*.-.---.--1.*.*--0-
1.-.1.*--..-*-.*..**.*-0-0...-1100.
--0*-.*..-.1-*.---***.**1-*--*1101.
*.-.1-.*.*.*0*.......*0-1---.--..**
1---0-*-*--11-.1--...0**---11-.*.1*
**01*1*---*---**1-0----0-----1*.*-*

*** Life<Cell> 23x49 ***

Generation = 0, Population = 2.
-------------------------------------------------
------0------------------------------------------
-------------------------------------------------
-------------------------------------------------
-------------------------------------------------
-------------------------------------------------
-------------------------------------------------
-------------------------------------------------
-------------------------------------------------
-------------------------------------------------
-------------------------------------------------
-------------------------------------------------
-------------------------------------------------
-------------------------------------------------
-------------------------------------------------
-------------------------------------------------
-------------------------------------------------
-------0-----------------------------------------
-------------------------------------------------
-------------------------------------------------
-------------------------------------------------
-------------------------------------------------
-------------------------------------------------

Generation = 5, Population = 32.
--0---0---0--------------------------------------
-0-0-0-0-0-0-------------------------------------
--0---0---0--------------------------------------
-------------------------------------------------
------0------------------------------------------
-----0-0-----------------------------------------
------0------------------------------------------
-------------------------------------------------
-------------------------------------------------
-------------------------------------------------
-------------------------------------------------
-------------------------------------------------
-------0-----------------------------------------
------0-0----------------------------------------
-------0-----------------------------------------
-------------------------------------------------
---0-------0-------------------------------------
--0-0-----0-0------------------------------------
---0-------0-------------------------------------
-------------------------------------------------
-------0-----------------------------------------
------0-0----------------------------------------
-------0-----------------------------------------

Generation = 10, Population = 23.
-------------------------------------------------
0-0---------0---0--------------------------------
-------------------------------------------------
0-----0-------0----------------------------------
-------------------------------------------------
----0---0----------------------------------------
-------------------------------------------------
-------0-----------------------------------------
-------------------------------------------------
----01--10---------------------------------------
-------------------------------------------------
------00-----------------------------------------
-------------------------------------------------
-------------------------------------------------
-------------------------------------------------
---------------0---------------------------------
-------------------------------------------------
-------------0---0-------------------------------
-------------------------------------------------
-------0-------0---------------------------------
-------------------------------------------------
-----0---0---------------------------------------
-------------------------------------------------

*** Life<Cell> 35x44 ***

Generation = 0, Population = 16.
--------------------------------------------
--------------------------------------------
------------------------0-------------------
-----------------------------------0--------
--------------------------------------------
--------------------------------------------
--------------------------------------------
--------------------------------------------
0-------------------------------------------
--------------------------------------------
--------------------------------------------
--------------------------------------------
-------------------------------0-0----------
--------------------------------------------
--------------------------------------------
--------------------------------------------
-----0--------------------------------------
----------------------0---------------------
--------------------------------------------
--------------------------------------0-----
--------------------------------------------
---------0----------------------------------
--------------------------------------------
------------0-------------------------------
-------------------------------0-----------0
--------------------------------------------
--------------------------------------------
----------------0---------------------------
--------------------------------------------
-----------------------0--------------------
--------------------------------------------
----------------------0---------------------
--------0-----------------------------------
--------------------------------------------
--------------------------------------------

Generation = 5, Population = 202.
-----------------------0-0------------------
--------------------0---0---0---------------
-------------------0-0-----0-0-0-------0----
0-------------------0-------0-0-0-----0-0---
-0-----------------------------0-------0----
0-----------------------0-------------------
-----------------------0-0---------0--------
--0-0-------------------0------0-00-0-------
-0---0------------------------0---00--------
--0-0--------------------------0-0----------
--------------------------------------------
0----0---------------------0-0-----0-0------
-0--0-0---------------0---0---0---0---0-----
0----0---------------0-0---0-0-----0-0------
----------------------0---------------0-----
-0-------0---------------------0-0---0-0----
0-0-----010-------0-------0---0---0---0-----
-0------010------0-0-----0-0---0-0----------
---------0--0-----0-------0-------0-------0-
-----0-----0-0-----------------0-0-0-----0--
----010-----00--------0-------0-0-0---------
----010-----1-0------0-0-------0-----------0
-----0--0----0--------0---------------0-----
-------0-1-----------------0-------0-0---0--
--------00-------------0--0-0-----0-0-----0-
--------0-0-----------0-0--0-------0---0-0--
---------0----------0-00--------------------
--------0----------0---0-------0-----------0
-------0-0---------00-0----0--0-0---------0-
--------0---------0-0-.---0-0--0-----------0
----------------0-00------00----------------
----0-------0--0---0---.-0-0----------------
---0-0-----0-0--0-0----0--0-----------------
----0---0---0---------0-0-------------------
-------0-0-------------0--------------------

Generation = 10, Population = 263.
--0-------------0---------------0-----------
---------------------------0-------0-------0
0-------------0---0-----0-----01-10---------
-------------------------0---0---1---0---0-0
----------------0-----0---0--0-101-1--------
---------------------------0-------0-------0
-----00-0---------------0------1-1----------
----------------------0---------------------
---01-*00-0-------------0----------.--------
--------------------0---1----------0--0-----
-----10-0-------------11-10------------0-0--
---------0------------0----------0--11--0---
---------------------0-000-0---------0-0-0-0
-------0---00----------------------0--0-----
11-----------0---------0-0-----0-------0-0-0
---------.0-------------------0-------------
*-10-------1---0-------------0---0-------0-0
----------------------------0-0-0---------0-
00-------.--00-------------------0---------0
-0---.-------.---10----0----0-0-0-------0---
---------00-100--------------0-0-0-0--------
---10---1--.**1-1--0001--0----0-----------0-
-----.-00-11100--------1-------0-0-0-0-0----
-00-----*..--0---00-0-.10-------------------
---0--1--.100--------0---1-------0-0---0-0--
----0---------------1-.-0-------------0-----
-----0--*0-------------0-----------0-0-0----
------0--10----0-----0**.-0----0----0---0---
--------1-----------0-110-------------------
-------00--0001--0.-..*0-*.--11--0----0-----
0-----0---0-----0---00-*11-----1-----------0
---------00-1-.11--1**0*..1.1--00-----------
0-0-----0-----*---0--100-1---0---0-------0-0
------------0-0------00-01----0-------------
0---------------0------0-------0-----------0

*** Life<Cell> 42x40 ***

Generation = 0, Population = 5.
----------------------------------------
----------------------------------------
----------------------------------------
----------------------------------------
------------------------0--------------0
---------0------------------------------
----------------------------------------
---------------------------0------------
----------------------------------------
----------------------------------------
----------------------------------------
----------------------------------------
----------------------------------------
----------------------------------------
----------------------------------------
----------------------------------------
----------------------------------------
----------------------------------------
----------------------------------------
----------------------------------------
----------------------------------------
----------------------------------------
----------------------------------------
----------------------------------------
----------------------------------------
----------------------------------------
----------------------------------------
----------------------------------------
----------------------------------------
----------------------------------------
----------------------------------------
----------------------------------------
----------------------------------------
----------------------------------------
----------------------------------------
----------------------------------------
----------------------------------------
----------------------------------------
--------------------0-------------------
----------------------------------------
----------------------------------------
----------------------------------------

Generation = 5, Population = 62.
---------0-------------0-0------------0-
--------0-0-------------0--------------0
---------0-----------------0------------
--------------------0-----0--------0-0--
-----0-------0-----0-0-------0----0---0-
----0-0-----0-0-----0-------0------0-0--
-----0-------0---------0-------0--------
----------------------0-------0-0------0
---------0---------------0-----0------0-
--------0-0-------------0--------------0
---------0-----------------0------------
--------------------------0-0-----------
---------------------------0------------
----------------------------------------
----------------------------------------
----------------------------------------
----------------------------------------
----------------------------------------
----------------------------------------
----------------------------------------
----------------------------------------
----------------------------------------
----------------------------------------
----------------------------------------
----------------------------------------
----------------------------------------
----------------------------------------
----------------------------------------
----------------------------------------
----------------------------------------
----------------------------------------
----------------------------------------
----------------------------------------
--------------------0-------------------
-------------------0-0------------------
--------------------0-------------------
----------------------------------------
----------------0-------0---------------
---------------0-0-----0-0--------------
----------------0-------0---------------
----------------------------------------
----------------------------------------

Generation = 10, Population = 70.
------------------------0--------------0
-------0---0----------------------------
----------------0-----0---0----000---0-0
-0-------0-------0----------------------
--------------0---0-----0----01*-*10---0
---0-----------0-------------------0----
----------------0--------------000------
-0-------------------0-----------0---0--
----------------------------------------
-------------------0---------------0----
------------------------0--------------0
---------0------------------------------
----------------------0---0----------0-0
-------0---0---------------0------------
------------------------0--------------0
---------0---------------0---0----------
----------------------------------------
---------------------------0------------
----------------------------------------
----------------------------------------
----------------------------------------
----------------------------------------
----------------------------------------
----------------------------------------
----------------------------------------
----------------------------------------
----------------------------------------
----------------------------------------
--------------------0-------------------
----------------------------------------
------------------0---0-----------------
----------------------------------------
--------------------0-------------------
----------------------------------------
----------------------------------------
----------------------------------------
------------0-------0-------0-----------
----------------------------------------
----------0---0---0---0---0---0---------
----------------------------------------
------------0-------0-------0-----------
----------------------------------------

*** Life<Cell> 12x24 ***

Generation = 0, Population = 22.
----------------00------
-------------------0----
-------0----------0----0
----------------0-------
-0-------0--------00----
------0------------0----
------0-----------------
------------------------
------------------------
------------0-----------
0--------0-0------------
0-------00-0------------

Generation = 5, Population = 119.
0-0-------001*-*.*1--*-1
-0-0-01--0-000--*.--0--1
--0-0010--0--0-0--1-011-
-0-0--1--------0----1--0
0-----.---0-01-***.-*-1-
0-10---0--10---*-0-.----
*-*0--1-0.*----000*---01
*-0---.-*1010--0-0-1---0
--0---1--*01-----01-0---
1-0-0-*-1---00---0-10---
*-*-111.1*0*-*-1---0----
*0*0-*1..--*.--10-------

Generation = 10, Population = 132.
00--0**-*1*-**-******.-.
1---11.1*---1.-...-1..-.
-*-0-*-.--**1*-.*.1-.**-
1--0--**---0---1-**-*-10
10*0*0.---*.*.**..***--1
-0-0*---*-..0--.--..-*0-
...111*11***--.1--*11.*-
..0---*...0.-.**1-.1.-0.
.*-.1*....11.10*-..-.--*
*-11*0.-.---*0-0**---*01
*..--*..-*-*.*-.0.*1---0
.1*.-.-.**1*.****00-0---

*** Life<Cell> 41x9 ***

Generation = 0, Population = 32.
---00----
------0--
---------
---------
----0----
---------
-----00--
---0-----
--------0
---------
--0--00--
----0----
---------
---------
---------
---------
--0--0---
---------
---------
---------
---------
------0--
---------
------0--
-0-0--0--
---0-----
---------
----0----
---0-----
-----00--
------000
---------
-----0---
--------0
----0----
---------
------0--
---------
---------
---------
-0-------

Generation = 5, Population = 181.
--*.*-*--
00-*.0-01
---11--00
0-0-000--
-00-*10--
00-10-100
0-0.-**1-
-0-0--0--
----00---
0000-00-0
---*---1*
*-.100*--
00.-0.-01
------0-0
-0-0-1*0-
0000-----
1*0..0*0-
00---010-
---------
-000--10-
011--1-00
----0010-
----0----
---.1-.-*
0*1.1*--*
-1011*1-0
0-----.*-
---1-.--*
-10--***-
0--.-1--1
---1-0.-*
-000-**0.
0--*.--0-
00--*110-
-0--0-110
000--0001
01100-00.
--0-00-0*
0-00-0--0
----000--
0-0-0110-

Generation = 10, Population = 176.
.****-*11
-.-.*-*--
-1*11-*01
-0*.-*-01
-10-**-*-
11**1-.**
1-*.0**11
-0---.-.-
.-00*-0-.
*00*.-...
1*0.-..**
*0.*.1.-*
-.**1*-**
-10--1.*-
0*-.-...-
1-.1.*-0-
*.1..1.-*
10--*1*--
00--0---0
0-1.**.--
-**--.*..
---*1.1-0
11-.1-.1.
-0*.-0.1.
*.1*.*-..
-1.1*..-*
1---.-***
-1-.-.**.
-.-0..*.*
0-....0**
-***--*0*
1.-1-..1.
.11*.**1.
--*-.-..-
0.1.*.*10
11-*-.--*
-.*-**-1*
-0---10-.
0--100-0-
---01*-0-
-----***1

*** Life<Cell> 8x7 ***

Generation = 0, Population = 26.
00----0
00-0-0-
-0--0--
0--0-00
------0
00---00
000---0
0--0-00

Generation = 5, Population = 18.
--1----
0.-.--.
-.-1-1*
...-*.-
--10---
-----1.
1.*-*0-
.01***.

Generation = 10, Population = 22.
*--*.11
-...-*.
*.-*-.*
.**...-
*.**.-.
.-0--.*
-..*.*1
.****..

*** Life<Cell> 15x18 ***

Generation = 0, Population = 23.
------------0-----
------------------
---------0--------
----00-0----------
--------0---0-----
-----------------0
---0-------0------
-----0----0-0-----
------0-----0-----
-------------0----
------------------
---0---0-------0--
------------------
------------------
----00---0---0----

Generation = 5, Population = 125.
--------0.10-0-0--
---0-1---0-0-0----
000*-10..---*10--0
1*-*1*-0***11---0-
00---0.-**0-10---0
----000-00--1-01--
-0---*---*0-------
0--.1*1-*-1-..1*-0
---1100-1-.1.01-10
--0100--0*0100--0-
--0---000*0-1-0--0
--01--0-01-0*0--0-
----..*-0.-0--0--0
00-1-1--00----0--0
1*1.**.0-0--010-0-

Generation = 10, Population = 113.
-1----*1*..-----00
*--.-*0.---.-----*
0*-.-....0*1...11*
..-..*--.**..111-1
0.0---.1.*-..*-1--
01*-.-*1-.10.-1.-1
--0-...1..*10*.*-0
.--*1**-*1*1..-.-1
0**-*1*-*-...1--.1
1*1.-1-0-..*.0.*.1
00-..000-.--..1*0-
0--*--1**-*-*..-0-
-.01..*01.111-----
*01*..-----1-10*-.
.*....*-.1-.-*0.0-

*** Life<Cell> 13x32 ***

Generation = 0, Population = 49.
--------------------------------
--0-----------------------------
---0--------0-----0---------0--0
----------------0----0----------
0---------------------0-------00
----------0----------0----------
-0--0------------------------0--
-0-------00----0----------------
0---------0-0--0-----0-------0--
0-----0-0-0-00-00----0-----0----
-------------0---0---------0----
--------0-----0-----0----0------
0--0----0---0-0-----------------

Generation = 5, Population = 180.
*0--0-0---00-0---0-0---0---0---0
*0--00--00-00-0---0-0-0-0--00-0-
-*-0-0-11---00.-.0--0-----0-0---
-*-----0-**-*0-*---1--0---0---0-
*.*-.0--0---*----0*0-*0---0100-1
-.*-00-0.-1-1*--.-0-0.0-01----0-
*-.----0-01-.*-*0-1-0---0--*11.-
.*--0-1--10**--.1----*--01010-0-
..--.---*---.-.-*1-*-1-------1--
*.---01-*-**.-.0.101*-0*--0--.-*
---1-000-*1-1.110--10*01----0*-1
-1--100-*--0*-..1-1-*-0-**000-00
-*-10--0.-0--*11*.-0-*0-000--10-

Generation = 10, Population = 183.
.0--.*1-*0.1--0--0-0101--0-.--10
**0--1-0-...**1..01-*-1-0-------
*.1--.-11--0--...-1----.--11...-
1**..11*-..-**-.*--*0-1-*.-.--10
..*-.1.*1.--.1-.-..-*...-*-1-..*
-***..0..*.11.1-.*0-**---.0-0001
.-.*---.-0*0*.0.0-.-.-.-0-1...*0
*.1*1-*1-*1.*-0.**1*0**-1--**00*
**.*.-0-*--0...0*.-.-*-.*0---.11
*.0*1.-1.-**.-.-.---..*.***.1.*.
0.-1-*-*0..*****-*-.1*-10.0.-.-.
*.*0-.--*1.*.-..**--.*0.*.1.1-1-
**1**---*---**.-**0-..01----1**-

*** Life<Cell> 9x16 ***

Generation = 0, Population = 40.
--0--000----0-0-
0-0-0000----0--0
--0----------0--
--0--0--00--000-
------00---0----
--0---0----0----
0---0---0-------
---00-------0---
--0-0----0-0--0-

Generation = 5, Population = 68.
--1.--.**--0--*-
--0--1.-01.-.--*
-0.-.1*-1-0-.-1*
11-*-.11.-*01*.-
1-**1--1-11-1-01
1--1.*1-00*1--10
.-**.-..-.011*-0
------01-----1*-
100-*-1-*0*1--1*

Generation = 10, Population = 83.
...*1*...0*****1
0.1*..*****1.-0*
1..*.-**.*1-***.
1***1*.1.*.....*
1..**00.*1****0*
*---*.*-*.*1*-**
**.*.-..1*..-.0*
0---*1*.----11*-
..1-.1.1.1**.-**

*** Life<Cell> 50x15 ***

Generation = 0, Population = 27.
------------0--
---------0-----
---------------
---0-----------
---------------
---------------
---------------
---------------
---------------
---------------
-0-----------0-
-------0-------
---------------
---------------
---------------
---------------
---------------
---------------
---------------
---------------
--0----0-------
---------------
---------------
---------------
--------0------
-------0-------
--------------0
---------------
---------------
------0--------
------0--------
---------------
---------------
---0--------0--
----0----0-----
-----------0---
---------------
--------------0
---------------
---------------
---------------
---------------
--------0------
---------------
---------------
0---0----------
-------0---0---
--------0------
----0----------
-----0---------

Generation = 5, Population = 240.
-----0-0-------
----0-0---0----
-----0-0-0-0---
------0-0------
-------0-0-0-0-
-0------0-0-00-
0-00---0-0--0-0
-00-0-0-0----0-
---0---0-------
-0---0---0---0-
0-000-0-0-000-0
-00-00---00-00-
---0-------0---
-0-----------0-
0-0----0----0-0
-00---010----0-
-0-0--010------
--0----0-------
---------------
0--0--0-0--0---
-00-11-0-00-0--
0--0-------0--0
-------0-----0-
--0-0--1----0-0
-0-0-0--0----0-
-----01-----0--
---0-0*0-0-0-0-
------0-0-0-0--
--00--.--00-0--
-0-*--1---1--00
-010.0-01*--00-
--0-0-.--0--0-0
------100--0---
0--------0---0-
-0--01.-*0-.0-0
0----0---.--.0-
---0---0--0----
--0-----0--1---
-----0-011-0---
----0---000-0--
0---0------0--0
-0-010-0---000-
0--0*00---0*100
---------0-00--
0-00*----------
---0-10-*0-0---
0---1-01-00----
0----*00-----0-
*--0---01---0--
-10010-0**0----

Generation = 10, Population = 242.
-10-0-0-0-0-01-
---0---0-------
---00-----01---
-1---0---0-----
-0-----------.-
---------------
---.--------.--
---------------
----------0---0
---0---0---0---
--0----0----0--
-1---.---.-----
0---01---1-----
---1-----------
--.----.0------
---------------
-.----0---0--00
-------*-------
---1----1--01-*
-----0-.-0-----
-1.-.*.1*..--11
----0-.*0------
0---1-*.*-----0
---1-00.-0--0--
0-0-0-0-01--1-0
-0---1-0---1--1
0-1011**-.-1--0
0-010-.---.*-0-
1-.*.*.---.11-1
-*-*.0--**..-0-
.1*0*1.**.0.01.
--.1--.0*--*.11
00----*-.0---0-
-10-.-*.-.1.-0-
1-.11....0-.01-
010*-1..-.0**-*
-001-1*11.-00-0
0--1----.-...-0
----11.*1--*1--
0--1.01----0---
0-01-101-00----
-0001-*01-1---1
-0.1.-*-1...-*.
--10-*-0*1-1-01
001..--1-00----
01-.*.-**-11.-0
.00.-1***-1-1--
.11-1..11**--1-
..*----**-.-0-1
-*1*-*1-...--11

*** Life<Cell> 37x36 ***

Generation = 0, Population = 48.
--------0-------------------0-------
----0----------0--------------------
----------------0-------------------
-------------------0----------------
---------0-0------------------------
--0-----------0----------0----------
-------------0----------0-----------
------0-----------------0-----------
-------------0--------------------0-
-----------0----------0-------------
------------------------------------
-------------------0----------------
---------------0----0---------------
------------------------------------
-------------0----------------------
------------------------------------
----0-------------------------------
------------------------------------
--0------0--------------------------
------------------------------------
------------------------------------
---------------0---0----------------
------------------------------------
---------------------0------0-------
------------------------------------
-------------0------------0-----0---
---------------0--------------------
---------0--0----------------0------
---------------------0--------------
-----------0---------------0--------
--------------0-----0---------------
------------------------------------
------------------------------------
0--------------------0---------0----
------------------------------------
--------------0--------------0------
----------------------------0-------

Generation = 5, Population = 441.
0-0010------100--0-0---0-------0-0--
----10-01-0*0-11--0-----0-0-0---0---
0-0-0-00.1--*1-------0--1--0-0------
------------000.0---0-01-0--------0-
0------11000--0-1-0--0001--0-----0-0
-0-0-0--0-110-01---0-111----0-0---0-
0-0-0-0-0-00----11-01-0--0-01-------
-0-0-------1---00--0-0--1.00100---0-
-------0--0.---1---0*0----0-00-0-0-0
-0-0--0-0----1*-0--10----110--0---0-
--0---00------0---0-----1-0---------
----00-0---0-00----0--0*10--------0-
---0-00---0*--0--01-0-1-10-------0-0
--0-0-----0*00--00-0-0-00---------0-
-0-0-------0----0-00--0-------------
0-0-----0------0-00-----------------
-0-----0-0----010--0-0--------------
-----00-0-----010-0-----------------
-0--01*0-------0---0-0------0-------
0---000-------------0-0----0-0------
---0-0-----0-0-0---0-0-0--0-0---0---
--0-0----00----10-0-0-0-00-0---0-0--
-0-0----0100000*00-0---0000--0------
--0-----0100-0-10-0--0-0*10-0-00-0--
-----------00------00---00-0000-0---
--------0--.*00.0--1---0--01*-.0----
-----0--000*-*10000-*-0--0-0--0--0--
----0-00-0-00*-0---0--0-0*00-0--1-0-
0----0-00------1--0-.--00*--0---00--
-0----0-0-0-1.-*-00-0------0---0-0--
0------0---010--1--0-1---00-----0---
--------0--0----0-0--1--0---0-------
--0-0----0-00-1--0--0-0--0-0-0-----0
-0---0----0-0-1-0-0-00--0-0-------0-
--0-0-----00-0*0-000-0-----0-----0-0
---------0-0-010-0-00-----0---0---0-
----------0---0---0----0-----0-0----

Generation = 10, Population = 497.
-1--.-*00.-*.11-*1--0--0-00-----0-0-
-0-...*0*--..1-..---11--.*----------
00-1.-*0**-1.1.*-11--0-..--1------0-
---110-0.1*--*-**1*11-0-011110---0--
-0-0-11*.---**00.-1*.--1*111-0--0---
0---0-1--....-1..0-*01.--0111-000--0
-0--10--.0-*111-*.0-*1-111**.011--0-
0-001-1--0.*---1*1-0*1-0-*0-**.1-10-
---0-.-.*--...1.-1-**1001-0--0.-----
000--0*--11-...*0------11..*1-.-----
0----0--11-*---1---1*-0-.*-1--1-----
--10.--.1--.-*..11--1.-*--00-00-----
--1--0.-1-..-***1-.-0-.1.00---0-----
0---0---0-..11..---.-----0--1-------
--10------1.-*0----1-*----0-1-----0-
--1-0-0-0-011001----1.11.10---0-0---
01-----0---0..---0------1-------1---
----1---0--01.-*---001--0----00---1-
----.*.110-----1-0-100------------0-
----1-0-1-0--1--01---100--00---00---
-0--01-1-100---.1000*.11------------
-----01-1--11--.--000*--10----1-----
----0--*-*-*-*-*-*-1.*0-----01-0----
0----00*-*--..-1110-*--1.-0-....--0-
------00--011-**-1-1.1-0-0--01110---
01100---.*0*..-...1..*1---.-.-.00--1
1----1-1-*1.-..*...-*-.--.-001--101-
1-0--11-111*-..*1.--0..00.----..**-0
--0---00--0*-*.-1-**.-0*...0*--1100-
----10--.-00..-.-.0001--00101-0--.--
----0---10--**--*---***00-1-11--0---
0--0--1-0-10*..**101..1*00-1-*1-00-0
------1----0--.-0---.--*------------
0-0-0---01.--11---.0-.-.11-1-00--*1-
--------------.0-0.--.*-------------
0---0-01--1*--------*0.-0-00-0--0--0
------------1-110--0**-0------------

*** Life<Cell> 40x19 ***

Generation = 0, Population = 20.
-------------------
-------------------
-------------------
-------------------
-------------------
-------------------
-0-----0-----------
-0----------------0
-------------------
-------------------
-------------------
----0--------------
-------------------
-------------------
--------00---------
-------------------
-------------------
-0-----------------
----------------0--
-------------------
---------------0---
-------------------
-------------------
---0---------------
-----------0-------
--0---0------------
-------------------
-------------------
-----------0-------
-----0-0-----------
-------------------
-------------------
-------------------
-------------------
-----------0-------
-------------------
-------------------
-------------------
-------------------
------00-----------

Generation = 5, Population = 213.
-------------------
-0-----0-----------
010---0-0---------0
0*0----0---------0-
-1----------------0
-.-0-0-----0-------
0.-.010---0-0-0-0--
0.0-*-0----0-0---0-
-.--00--------0-0--
-1-----000---------
-*0---01110-------0
1-0-----*--------0-
0-------1---------0
0-0-00------00--0--
-0-0-*1.--.1*100-0-
---01-------00-00--
-0--00--------0-0--
0-0-0-0-00--0--0--0
-0-0-0-01100-0-.-0-
--0-0---00--0-----0
-000--0---------.--
01*0-0-0--------0--
-00---00-------0-0-
--.---1*0--0----0--
0-0--0--0---0------
---101--00---------
0-00-000--0--------
--0-0--1---0---0---
-00-----01010-0-0--
01-100--0.--0--0---
-000--0--0010------
-------------------
-----0-0--0-0------
----0--10--0---0---
-----0--0-----0-0--
-----01-0------0---
-------------------
-----0**0--0-------
--00--11---10------
-01*-*..*-*-0------

Generation = 10, Population = 265.
-.-0-0-0-0---------
0.0-0--------------
---1---0-----------
0.001-0------------
-.-*1---0------0---
*.*0..---00-0------
*.*.1.0---1--0---0-
*.*1.-.10-*00-0----
.*-*-.--1------00--
0.--*1--.00--------
0.-10-.*...---01--0
.*--00-..1-11-0----
--1--1-...-11------
*1-0-0--*--11-0---1
.-0--*...1*..11--.1
0110-01----0--0---0
0----*00.*-*0-1..--
01--*----1010--01-0
------1-*--11.1.-*-
--.------0-----1---
-----1-0-1--1-01.*0
1-.--01111-1-------
--111-0.--1--------
**.0-...-.10-00----
-1---.1*01-1-------
*1110**-1*------1--
-110-----10*1011--0
-1----0*-*1.--01---
0-11------0*101-10-
.**-0*1-..-.-.-.-0-
000----0-.-10--1---
0*-.1-*.---*-0-0---
-0-1---*01-.-0-----
0--00-1-1----------
-0---.-0-0---------
--01-**-*----------
--01*-**1-1*-0-----
001-1*..110---00---
110.0*-1---1-------
.-*****..-.--0**10-

*** Life<Cell> 24x27 ***

Generation = 0, Population = 27.
---------------------------
-0---0----------0----------
---------------------------
---------------------------
--------------------------0
----------0-0--------------
------------0--------------
---------------------------
-----0---------------------
-00-----------0------------
----0-------0--------------
-------------0--0----------
-------------0--0--0-------
---------------------------
--0----0----0----0---------
---------------------0-----
---------------------------
----0----------------------
-------0-------------------
----------------------0----
---------------------------
---------------------------
--------------------0------
---------------------------

Generation = 5, Population = 231.
-0-------00-----0---0----0-
0-0-----01100--0-0-0-0----0
-0-------000-0--0---0------
-----0----------------0-0--
--0-0*--0------------0---0-
-0-0--1-101-*-1-0-----0-0--
--00--00*0-0---010---------
-1--0---00--1110-0-0------0
-*0--00-0-0--*0010--0----0-
-*1-11*--0-0.-------------0
*-.--.--00----.0*---00-----
0----0-00101*1-.--10-*00---
-01---0-0101*1.--*.0*-0-0--
-1*01-0000-0-.--*0--01-0---
---*--*-*11*---0*---0----0-
0--01-000--0--00**00---00-0
0-------0---0*00*-0-0-0--0-
-010-----0-000--00-00------
00*10-0---0110--0--0------0
--00---0---00------0--0--0-
----0-------------0--0----0
---0-0-0--------0---0---0--
----0-0-0------0-0-0-010-0-
-------0--------0---00-00--

Generation = 10, Population = 234.
---01--00-10--------------0
0--101-1.*1**1.-------1---1
--1-.*--0-*1.1----000---1-0
-1-10.1--0---*--.1------0--
----****.110*.111-01.-0---0
1--.--.......--.*-11-10----
-*-1*---.-1-.*10*-1-*-0----
-.-00-*0.0--...--1-00-10---
-*0-1-101---1..1.-10-------
1.--...***--.101-*---*1----
.-*00...**----*-.--*.-0-1-0
.-*--0..0-1.***..-.00*--.-1
------1---*-.1.....1*.-1.1-
*1..*-.00.*01**1.1*0**--1*-
---*1..0**....-**1--*1-0-.1
*1-*.0-1.00.1*--..*----...-
*---*-*-.01.0..**-.-*---01-
01.011----10**--1-*--.--01-
...-.0----.----*.-1-*-1----
-0---------0--.1---**10---0
0-0--------1*.0-*-11-0----0
----0--------10-1----1.-0--
0---1--------0-01-------0-*
--1-0-0------------0-0-0---

*** Life<Cell> 35x15 ***

Generation = 0, Population = 33.
------------0--
-000-0---------
---------------
---------0-----
--0--0-----0---
---------------
--------------0
---------------
---------------
------------0--
---------------
---------------
----0-0--------
--0---------0--
---------------
0--------------
--0-----0------
-------0-------
---------------
---------------
-0-------------
---------------
--00-----------
-------0-------
---------------
----------0----
----------0----
--0-0-----0----
---------------
-----------0---
-----0---0-----
--------------0
---------------
---------------
0--------------

Generation = 5, Population = 231.
-01-0-----0-00-
..-*1-110-000--
--*0--00-0-0.0-
0-.0-.01---.0--
1-01.-*.0.-0*--
---*---0--00-0-
-000-0------10-
--0-000-0--01--
-01-1-10000---1
-0100000-0----.
0-0-----0---00*
10--------0---0
-0.---0000-00-0
10---01-1000---
0-1-1-000---0-0
1----0------0--
**000-------*0-
1---0-----01-0-
01*-0--0---00--
---0-00--------
-**00-00-00----
000--0-1-010---
-011.0*-00-----
0-*-1100-11*0--
0--10-0---*---0
-010--*101*--01
-011-1-----0-01
--00-0-1**.*0-0
--------0-.----
00---00-0----1-
11----000*1*0-0
---------00-*--
-00-0------00--
0-0-00---00-0--
-0--110-0-00---

Generation = 10, Population = 235.
..*-**0**.111-.
.*-..-*.-0010*0
--..-1.*-*-1*0-
*...-..-1**.---
.-.*.-.*-.1-..*
*-.*..---.*-1.1
0--*0.-1-.--*-*
11*1-.-..1-.1-.
1-.01-...**1--*
-*.-*1---..-...
11---11-01-1--.
-1-0-1--00111**
-0.--.*0.1*1.-*
--0--..1..11000
--..*-.-0--0*-1
--.**11..11-10-
..0.----11.0*10
10*0---0--11-.-
-..*.11001--*0-
*1*.011-0---10-
*.*.*--110--1--
.0.-**0.-*.-01-
0-1*.*.-...*-1-
**..**--1-.*-*-
**.1--00...*--1
01..-0.1--.110*
-0-*-.11-*--.**
01011.-.....-**
.*---000**..--0
11-.*.100---11*
----1---1.**1.-
---110*.0-01...
--0---0-111*.*-
----.110-.*--00
-----..-1101-0-

*** Life<Cell> 27x8 ***

Generation = 0, Population = 40.
-----0--
--0---0-
---0---0
--------
--------
--------
----00--
--------
----0---
----0--0
----00-0
-----00-
----0---
--------
-----0--
----0--0
0----00-
---0--0-
---0----
--------
-------0
-0--0-0-
--0-0--0
----000-
--0----0
-----0--
----0--0

Generation = 5, Population = 90.
----0-0-
----0---
0-01-10-
---0---0
--011*-0
0--0--*-
1*-1*-.1
-0-0*-*-
10--.01.
--01-*0.
--0-1..-
--*1--*-
-00-*-*-
-001..-*
---1.1.*
-00*--*-
-*-01*1-
0*--1---
--*---.-
0--1--*-
10--*---
--1--0--
----*-*-
-**.-0.-
1--1*.-0
---111.*
-0011.*-

Generation = 10, Population = 91.
-0-.**--
-0*1.-1-
--11-..-
100-*-*.
---.....
*-.---.-
*.*..-.1
*001.1.*
*-*1.-.*
*-1.-*-*
--11-..*
-1.***.0
-0*-.*.1
.1--..1*
0-*..*.*
0-*.--.-
-.--*.11
..--..11
1..-.0*1
-1.-0*.-
1*-0.--0
--.**--1
-.*-.1.0
-...***.
.--**.*.
*-0*1*.*
11-.1.*-

*** Life<Cell> 34x3 ***

Generation = 0, Population = 9.
0--
0--
---
---
---
---
---
---
-0-
---
---
---
---
---
---
---
---
0--
-0-
---
0--
-0-
---
--0
---
---
---
---
---
---
-0-
---
---
---

Generation = 5, Population = 32.
*--
*11
10-
10-
-10
1--
0--
---
---
---
---
-0-
--0
-0-
--0
00-
---
--0
-00
.1-
0-0
--.
--0
01-
---
-*0
01-
---
--0
---
---
---
---
---

Generation = 10, Population = 45.
.**
*.*
..1
..0
.-.
.--
.--
---
110
---
---
-1-
100
101
*0-
*.-
-.0
.-*
.*1
*.1
-*0
.-.
*--
*.*
.-1
0.-
*11
1.-
--0
-*1
1--
000
-0-
--0

*** Life<Cell> 50x47 ***

Generation = 0, Population = 13.
-----------------------------------------------
-------0---------------------------------------
----------------------0------------------------
-----------------------------------------------
-----------------------------------------------
-----------------------------------------------
---------------------------------------------0-
-----------------------------------------------
---------------------------------------0-------
-----------------------------------------------
-----------------------------------------------
-------------------------------------0---------
-----------------------------------------------
-------------------------------0---------------
-----------------------------------------------
-----------------------------------------------
------------------------------0----------------
-----------------------------------------0-----
-----------------------------------------------
-----------------------------------------------
-------------------------------------0---------
-----------------------------------------------
-----------------------------------------------
-----------------------------------------------
-----------------------------------------------
-----------------------------------------------
---------------------------------------------0-
-----------------------------------------------
-----------------------------------------------
-----------------------------------------------
-----------------------------------------------
-----------------------------------------------
-----------------------------------------------
-----------------------------------------------
------------------------------0----------------
-----------------------------------------------
-----------------------------------------------
-----------------------------------------------
-----------------------------------------------
-----------------------------------------------
-----------------------------------------------
-----------------------------------------------
--------0--------------------------------------
-----------------------------------------------
-----------------------------------------------
-----------------------------------------------
--------------------0--------------------------
-----------------------------------------------
-----------------------------------------------
-----------------------------------------------

Generation = 5, Population = 199.
---0---0---0---------0-0-----------------------
--0-0-0-0-0-0-----0---0---0------------------0-
---0---0---0-----0-0-----0-0----------------0-0
------------------0-------0------------0-----0-
-------0------------------------------0-0------
------0-0-------------0----------------0-0---0-
-------0-------------0-0-------------0--0-0-0-0
----------------------0------------00-0--0-0-0-
-------------------------------0--0-01----0-0--
------------------------------0-0--0-------0-0-
-------------------------------0-0-------0--0-0
------------------------------0-0-0----10-0--0-
---------------------------0-0-0-0-0--0-0------
--------------------------0-0-0---0-0--00-0----
---------------------------0-------0-0---0-----
--------------------------0-------0-010--------
-------------------------0-0---0-0-00-0------0-
--------------------------0---0-0-0-0*0-----0-0
-------------------------------0-----0-------0-
------------------------------0--0-------0-----
-----------------------------0-00-0-----0*0----
------------------------------0--0------010--0-
-----------------------------------------0--0-0
-------------------------------------0-------0-
------------------------------------0-0--------
-------------------------------------0---0---0-
----------------------------------------0-0-0-0
-----------------------------------------0---0-
-----------------------------------------------
------------------------------0--------------0-
-----------------------------0-0------------0-0
------------------------------0--------------0-
-----------------------------------------------
--------------------------0-------0------------
-------------------------0-0-----0-0-----------
--------------------------0-------0------------
-----------------------------------------------
--------0---------------------0----------------
-------0-0-------------------0-0---------------
--------0---------------------0----------------
-----------------------------------------------
----0-------0-------0--------------------------
---0-0-----0-0-----0-0-------------------------
----0-------0-------0--------------------------
-----------------------------------------------
--------0-------0-------0----------------------
-------0-0-----0-0-----0-0---------------------
--------0-------0-------0----------------------
-----------------------------------------------
-----------------------------------------------

Generation = 10, Population = 211.
--------------0---------------0------0-0-0-0-0-
-------------0---0-------------------0---------
------------0---0-----0-----0---0------0-----0-
-------0-------0---------------0---0---0-------
--------------0-----0---0-----0------*---0-----
-----0---0-------------------0---0-------------
----------------------0-------01---11.1----0---
-------------------------------1---.-.-0-1-----
----------------------0-----01-.100-1*1-01-----
-----0---0-------------------0-------.101--0-0-
--------------------0---0-----00----001.-------
-------0---------------0---0---0----0-1*0*00---
----------------------0------------0-----0---1-
---------------------0---0---0---------.-----1-
----------------------0------------01.1----0---
-----------------------0---------0-0-.11-----1-
--------------------0---0---------0-*-*-10-----
-------------------------------0-*0*0.1.-0-0---
----------------------0------0------1.1-0-00-.-
-------------------------------1-0-00-00-*---1-
---------------------------0---*.-----0-1*1*1*-
-----------------------------1---0-----10.00---
-----------------------------00----------.---0-
-------------------------------0---------0-----
----------------------------0-0-0----0---*-----
---------------------------------------0-.-0---
----------------------------0-0-0--0-0-----0---
-----------------------------------------1-----
------------------------------0----0-0-0-0-----
-----------------------------------------------
-------------------------------------0---------
-----------------------------------------------
--------0-------------0---------------0------0-
-----------------------------------------------
------0---0---------0---0-----------0---0--0---
-----------------------------------------------
--------0-----------0-0---------------0------0-
-----------------------------------------------
------------------0---0------------------------
-----------------------------------------------
0---------------0---0---------0----------------
-----------------------------------------------
0-0-----------0---0---------0---0--------------
-----------------------------------------------
0-----------0---0---0-------0-0----------------
-----------------------------------------------
----------0---0---0---0---0---0----------------
-----------------------------------------------
------------0-------0-------0------------------
-----------------------------------------------

*** Life<Cell> 6x31 ***

Generation = 0, Population = 13.
-------------------------------
-------------------------------
------------0--------0---------
--------------0----00---0----0-
-0-----------------------------
-0-----0------------0---00-----

Generation = 5, Population = 70.
010----0---0-0--------0-00-----
0*0---0-----0---00-0.--01-0----
-1-----0-00---.--*0.0--0-*0-00-
-.---00--0-0.-0**-.-.-0-1--1*10
---10*00--00--00---0-1-0-----0-
-.0.-10---0-00---01.--01-*---0-

Generation = 10, Population = 87.
-.--0-------11*00-0--0-0--1----
0.01--1--111--1-.1--*100*-.1-.-
-.-01-*---*-1*.**..*.001-*0-01-
0.-*-.---**1.--..0*..-1-*****.*
0****.-1-.00*-1-1-**---1--0*-1-
0***-*--1.--*.-*-.**-*1-1.--*-*

*** Life<Cell> 17x42 ***

Generation = 0, Population = 34.
------------0-----------------------------
------------0-----------------------------
---0--------------0-----------------------
------------------------------------------
---------------------0--0------------0----
--------0--0------------------------------
------0-0------0------------0--00---------
-----------------------------0------------
------------------------------------------
------------0----------------0------------
---------------0----------------------000-
------------------------0-----------------
---------------------------0------------0-
--------0-----------------0-------0-------
-------------0----------------------------
-----------------------------------------0
0----0----------------------0-----------0-

Generation = 5, Population = 289.
--0-0--0-0-0.--01--00-00-0----------0-0---
---0--00--1**01-*00--00-0---0--00----0----
-----0*-*0-0.0**-----1-0---0--0110--------
------001---0-00-0--0-0--0--0-0000-------0
----0--0.--0*0-00-11-0..0-00-0--1-0-----0-
--0-*01-1.1--10*00000---00-00*0-00-00-0000
-01--0-0.0.--10100*10--01-01*--1..1**-*-10
--000-----011--0--00-0-0*10-0--.--000000--
--------1--0----0---0-00*0--0-----0-0--0.0
------00*00*00---0-0-0---**-0--1-1--00---0
-----0--*001------0------001*-0*10--**.**-
0----00-0--0-0-0-----0-0---0**0-0-00-----*
-0----0-------------0---0--0110-0--0-0-.-0
---0-0---0-----0-0---0------1-00----001---
-0----0-0-0---0---0---0-0--1------------00
000-00-------0-0-0-----010-00---0-----01--
0*.--0--0-0-0-0--------0101-0--0-0-0---0-0

Generation = 10, Population = 320.
--01-1----.**-1-101*1-1.*0--0-1.*-0--0000-
--0--101--...**1.-.-.---1--00*1-1---------
-01*...-.**-*-**0-10*.*1.-.11.-11--0-*1-.1
0-0--1**101.*--1--10---0.--1--*100001-1-1-
--1-.-.-.*-**--.0**---.*----0-0***1---0-.-
1--0*..11.*-**-.-**0--1-.*-*..--0.1-1-*--0
-..1...-***1-1**--.1-0-*.*-..01.*****-*0-0
--*-.11-.0*.*-1.-01---**.*-*-.1.-...1..01*
-1-01---*-*-*---0011--1.*-1.---.*--..-...*
----0111*-..0-1-0--1-.---*.---*.1*--.*.*01
-1111.--.1..*10-1--11---.....*0*.--1....*.
1-0-1---.1--010-0---01---*-...*01-.010*-1.
101---.-**-11----000--1-101-1*.**10...-*-.
01*-01---0-0-10---0-0----0--.001-00-.*.-.0
11-*1**01-0--0-0-0--10--.-*.*-*.*001-.1--.
**.-.0-----0----0-0------11.-.-1-0-0-0.--0
1.**-.*11-00---0-00-0-1-.1*11-11--0-0-0-*1

*** Life<Cell> 7x2 ***

Generation = 0, Population = 5.
0-
--
00
0-
--
--
0-

Generation = 5, Population = 6.
0.
-*
-.
.-
-0
10
0-

Generation = 10, Population = 6.
-.
1.
-.
**
-*
*.
-*

*** Life<Cell> 44x21 ***

Generation = 0, Population = 18.
------0--------------
---------------------
---------------------
---0-----------------
-0-------------------
---------------------
-------0-------------
---------------------
---------------------
---------------------
------------------0--
---------------------
---------------------
---------------------
---------------------
---------0-----------
---------------------
---------------------
-------0-------------
---------------------
--------0------------
------------0--------
--------0------------
---------------------
---------------------
-------------0-------
---0-----------------
---------------------
---------------------
---------------------
---------------------
---------------------
---------------------
---------------------
---------------------
---------------------
---------------------
---0-----------------
--------------0------
------------0--------
-------------0-------
---------------------
---------------------
--------0-------0----

Generation = 5, Population = 191.
0110-----0-0---------
-00---00--0----------
-----01-0------------
-.---00*0------------
0-0.0**--------------
-0-1-00----0------0--
--0*0-----0-0----0-0-
-0010------0------0--
0-00-----------------
-0-----0------0-----0
------0-00---0-0---0-
-------00-0---0-----0
---------0-----------
-------0----------0--
-----00-0----0---0-0-
----0-010---0-0---0--
-----0-1-0--00-------
---0----0----0-------
--0-0---.00----------
---00---0-000--------
---0-0--10-0----0----
---0-----0--0-00-0---
--01100----0----0----
---00--00---1--------
-------0----0----0---
-------00-00-0--0-0--
------011---0----0---
-------00------------
-------------0-------
---0--------0-0------
--0-0--------0-------
---0-----------------
---0-----------------
--0-0---------0------
---0--------00-0-----
-----------0--0------
-------0------0------
------0-0-0--0----0--
-------0-0-0-.---0-0-
---------00---.--00--
---0------0-------0--
--0-0--0------00-----
---00---0---00-00---0
---0-0-----0-00----0-

Generation = 10, Population = 281.
.****0-.-0--0-0-0-0--
--0----.0--0---------
0*1*11.1.-----0-0---0
-*.*1-0*.11--0-------
01.*..**-*11---0--0--
-01.000-11-0---------
0.1.0--001---0---0---
-.-1-0-0---0---------
--0----10-0----00----
---------------------
-0---01-1.1-0-0---0--
-1---0---0--0--------
---1--0-0-------0----
-1-0----0-0---0--0---
-1---.-**-0----------
---1--1.----.0-0---0-
---10-*..-0-0--0--0--
-0--01---1-0---1-0---
00-1.-0-.-0--11--1--0
-------0-----0------0
--00--1-1---1-111----
--0-0-1--1----..--0-0
--.1*1.-0-1-.-1-1-0--
-----0-0.--0..------0
0--1--001---.---0----
---1--1*00..1--------
-0---*..*1-0-0-------
---1-00-1---1--------
---1--0*.-00--0------
-0---0----0-1-1------
------0-0-0-01--0----
---.------0-101------
---.----0--0--10-----
--------0--0**-00----
-0---0------1.0------
---1--0-1-10--*-1-0--
---1--0-----1.*-----0
-0--101-0*1*..--1-0-1
----11--11-...-*-.0-*
--01--1-0--1-1.*-00-.
---0--11---1111.-0--1
0--0.---0-1-.1.10-1-0
-----0------*--1*----
-1*1-00-0-0-1-*-*---0

*** Life<Cell> 17x28 ***

Generation = 0, Population = 4.
----------------------------
-------0--------------------
----------------------------
----------------------------
----------------------------
----------------------------
----------------------------
----------------------------
---------------0------------
------------------0---------
----------------------------
----------------------------
----------------------------
---------0------------------
----------------------------
----------------------------
----------------------------

Generation = 5, Population = 60.
---0---0---0----------------
--0-0-0-0-0-0---------------
---0---0---0----------------
---------------0------------
-------0------0-0-0---------
------0-0------0-0-0--------
-------0----------0---------
-----------0-------0--------
---------00-0-0---0-0-0-----
--------0-00-0-0---0-0-0----
---------0----0-------0-----
---------------0------------
-----0-------00-0-0---------
----0-0-----0-00-0-0--------
-----0-------0----0---------
----------------------------
----------------------------

Generation = 10, Population = 49.
-------------0-*-0----------
-------------0-.11--0-------
---------------1------------
-------0-0-----0--0---------
----------------------------
-----0-0-0-0----------------
-------1---------------0----
---------10---------------0-
-----0---.-----------0---0--
-----0--11--1-----------0---
-------1---------------0----
-0-----0-00------0--------0-
-------------.--------------
---0---0---0---1---0--------
---------------1------------
-0-------0-------0----------
-------------0-0-0----------

*** Life<Cell> 14x28 ***

Generation = 0, Population = 31.
-0-0-------00---------------
---000----------------------
----------------------------
----0-----------0-----------
----------------------------
-----0-0----------0-------0-
-------------------------0--
---0-----0---------0--------
-------------0-0------------
------0---0-------------0---
----------------0--0--------
----------0-0----00---------
-------0-----0--------------
----------------------0-----

Generation = 5, Population = 174.
-*010.-0*1*..*-**00-------0-
**-*-.11-*011--000-0-------0
0*-*-0----0..0----000---0---
-0-.---1*100---0--0110---0--
-1--000-0---110-0--00---0-0-
0100..1001------0--.-0-0----
-0--0-00-000000-*-0---000---
---01*-*00.-*--11-*0-00-0--0
--0-0-----0*01-1-*-.0-00--0-
-0-11*--0.*-0-----.-*------0
--00-0-00000------0-1-------
--0100-01-00--00--1-1-00-0--
--010-0-01---00-0101-0--0-0-
---0-0---0---0-00.1----0---0

Generation = 10, Population = 177.
-.....-0**..***....-*100-0-0
..-.1*.*..*1.00-*00---0---0-
-.**111**.1.*--0*1-010---0--
-01*.1*..1-.10--1.*1*11-0-0-
0.--...--*-1.-.-1*-0-*0-----
1--*.*.*.100.*1*0-...1..---1
-.--*-0*-11.-0...--.1.1.----
1.1.**.*.**0*--1*0.*.1.-.110
-.---*---.-*-.0.*.-*..0*1--1
-111*.---..-*0*--...*-*1*1-1
-0-101-0---01--*0-.-*-1-1000
0-.-*0*0..00---.-.*-...-.1*0
---*---11*--*0--1.1.0*11---0
-0-*-.010*10-*-....-*-1-000-

*** Life<Cell> 10x44 ***

Generation = 0, Population = 4.
----0---------------------------------------
--------------------------------------------
-----0--------------------------------------
--------------------------------------------
----------0---------------------------------
--------------------------------------------
--------------------------------------------
----------------------0---------------------
--------------------------------------------
--------------------------------------------

Generation = 5, Population = 50.
-0--1-10---0--------------------------------
00---0--000---------------------------------
0-0-.---0-0-----------0---------------------
-0--0-0--0----0------0-0--------------------
---0---0-----0-0------0---------------------
----000-------0-----------------------------
----0-0-----------0-------0-----------------
-----0----0------0-0-----0-0----------------
---------0-0------0---0---0-----------------
----------0----------0-0--------------------

Generation = 10, Population = 53.
0.0--***100-010-----------------------------
-1--110-0-----------------------------------
.-*1.1*1.-.11--0--0-------------------------
----1-----------------0---------------------
-*.-.-.-1----0--0---0-----------------------
----0-1-------0-----0---0-----0-------------
--0-.0.---0-------0-------------------------
------------0---0-----0-----0---0-----------
--0---0-0---0-------------------------------
--------------0---------------0-------------

*** Life<Cell> 21x42 ***

Generation = 0, Population = 38.
-------0-----------------0---0------------
--0------------0----0---------------------
------0----0-------------------------0----
--------0---0-----------------------------
--0---------------------------------------
---------------------------------0--------
----------------------0-----------0----0--
-----------------------------------0------
----------0------0--0--0-------------0----
-----------0------------------------------
-----------------------0------------------
--------------------------------------0---
-----------------------------0------------
--0-------------------------------------0-
--------------------0-----0---------------
--0------------------------------------0--
------------------------------------------
--------0---0-----------------------------
------0----0------------------------------
------------------------------------------
--0---------------------0-----------------

Generation = 5, Population = 334.
00-101*1---0---00--0--0---0-0-0-010-0-0---
--*--0*0----1-0-*11*1-00-0------0----0-0-0
0-.-1-0..1--0-0*0--000-0--0-0-0-0-*---0---
0-.0-0.--0-0-0------0-00---------0--00-0-0
-00-00.*-0--0--0--00*00---0-010----0010---
00-0---0---10-0-000010-0-00-01-----00----0
--0--0-00-01---0-0-00--.-0-0------0-----0-
--0----0-0----0-0-0--0--0-00-0--00-0---10-
-010-0--0----1*0-0..0-00-00---000*1---00--
-010----0----0-----0000-0-0--0--01--------
-------0-------0--0*.--0-0*10-----1---01--
-0-0------0------0-0--00-000-------*00010-
0-0---0-00--0---0-00-00---1-----0--0--000-
-0---01--0--10--00--0-0-00----0--0-0---1-0
-----0-00-01---0-0---01-10---1-0---00-0-00
-00--0*0---0----0-----00-----00---0-00-0..
00100-1-0---0---0------0-0--0-0----0--0-00
-0.--0.--000-0---0--0-----0--0---------0-0
----0-0--1-00-0----0-0-0---0-----------00-
00-0---0--00---0--------0-0-0---------0-0-
-00-------0-0------0-0-----0-0---------0--

Generation = 10, Population = 349.
.-..1....*--0-01--1.*-..-0---0-0-.*100---0
-1.1*-.-.--..0.0.--..0---00--000-.-0--0---
-**0*-...*.-*.0.-----.-----00*10...--1-0-0
*1*11***-1-00------0---1-0-00*-0----0----0
0-.-*0..-1.-.-0-0--..*01-11-1.-*0----*-0--
1-*-**0--11-00-1...----1----0.11-00-----.-
11.1-11--1.1-0--0.*0**1*--0*--0.-1-*------
01.-00**----0-*0-010.-----1---100-.-1**.00
------1-*0---1***0**-*01-*.--*.**...-1..-1
--*0----1----*-.1--.*01--0..00-00*..---1-0
0---0--0-0--01.--1-..*-1*1...0-1*--*-.--0-
-0--0-1-0-0-0-1*0--1.0---01.1--0*.-.*-**-0
--0--0.0----*-00.0--1-.-**..-1*1-0--------
-0-1.-.-1-0------0---0----0-1101..0-*--...
01-1-0--*1.*--0--*.11....110*.*0*--01*0-10
--00-*.0*0*.----.1--111---00--1111-0-.*0..
1...*0..-1*0-001-----10-10----*----11*0-*-
--*.--.-.1-0*1---------------0-0---0-10..*
1-.-0--1-*1.**---------0-00--0--0----0--.-
*-*1----.-------1---1---------------01...-
1-.0--0-0-1-0---0--10-000-0110110-0-----0-

*** Life<Cell> 30x28 ***

Generation = 0, Population = 22.
---------------------0------
----------------------------
-----------0----------------
---------------------------0
----------------------------
-----------------------0----
----------------------------
----------------------------
------------0-------0-------
--------------0-----0----0--
----------------------0-----
----------------------------
----0-------------------0---
----------------------------
--------0-------------------
----------------------------
----------------------------
-----0-------0---------0---0
---------------------0------
----------------------------
---------------------------0
-----------------0----------
-----0----------------------
----------------------------
----------------------------
-------------0--------------
----------------------------
----------------------------
----------------------------
----------------------------

Generation = 5, Population = 199.
----------0-0---0-0----00-0-
-------0---0---0-0---00-00--
------0-0-----0-0---0-0--0--
-------0----0--0----0-0---0-
-----------0-00------*00---0
-----------000-0--01--0-0---
----------0-0-0----010-0-0--
----0---0--0--------.-0---0-
---0-0-0-00---.-0-1--0-00---
----0----0-0.--0--.01-..*0--
-------0-00-----00*0-0-000--
0-----------0-----0-------0-
-0---0-0-0-0--0-----0--0-0-0
0-----0-0---0110---0--------
---0-------0--0------11--0-0
------------0--------00-0--0
-0-0-0-------------0------01
0-0-00--0--------00-0.0-01-.
-0--0-00-0------0-00---.0101
-----1--0--------0-----1----
-----1-------0-------00*--01
-0--0-0--0--0-0-----0*-1000-
0-0--0--0-0--0------0100---0
-0-------0-----------0-----0
---------0----------------0-
-----0--0-0----------------0
----0-0--0------------------
-----0----------------------
-------------0--------------
------------0-0-------------

Generation = 10, Population = 254.
---0------01**00--01-*0.01--
------------1---0-00010--0--
-0--10------01---010..-----1
--------------10-0-.*00--0-0
--01--0-0--.-----01-1.-.*00-
------------.0----*1.-.-----
------0-.-0--------0*11-*---
-----00----1--1000*1..-011-0
--0---1-1--*-0.0*-*--1-.1.*1
---00-.1-1.1*1-0***.......*1
--0-0-----*010*01-.**-0.*-.-
-----00---101----0.----*-*--
----00----0-*1.-0111010*.1-*
-----------1.1-*-0*--0*--000
0--0---0----1-.-1-0-0111---1
-0------------00-0-0--0---11
0---1*1---0--11-0-0--.-0-1.*
-----1-0----10-.1.1*0.**-.*.
----.-*.---01--1--0..0-.-.-.
-1---.---0----00-----11.-.1-
-1--0.-----------0-*-1**-*.*
---1-.-----1-----01.1.0.0.1-
---1------01---0-----11---0*
-----1---.---1-----0-.---0--
-0------0.---1-------*-1----
-----------0-0-0---0-.-0---0
-------------------0---1---1
-----------0-0-0-0---1-0---1
---------------------0---0-0
-------------0-0-0-0--------

*** Life<Cell> 10x24 ***

Generation = 0, Population = 1.
------------------------
------------------------
------------------------
---------------------0--
------------------------
------------------------
------------------------
------------------------
------------------------
------------------------

Generation = 5, Population = 11.
------------------------
------------------------
-----------------0-----0
----------------0-0---0-
-----------------0-----0
------------------------
---------------------0--
--------------------0-0-
---------------------0--
------------------------

Generation = 10, Population = 16.
------------------------
-------------0-----0-0--
------------------------
-----------0---0-0-0-0-0
------------------------
-------------0-----0-0--
------------------------
---------------------0--
------------------------
-------------------0-0-0

*** Life<Cell> 27x19 ***

Generation = 0, Population = 32.
------------0------
-------------------
----------0-----0--
-0----0------------
---------------0---
----0--------------
-0-----0--0--------
------------------0
-------------------
------0----0-------
------0-----------0
-----0-------------
0---0----0---------
----------0--0-----
-------------------
-------------------
------0------------
-------------------
-------------------
0--------------0---
-------0--0--------
---------------0---
-----0-----0-------
-----------------0-
------------0------
-------------------
--0----------------

Generation = 5, Population = 221.
----0--0---0--0-0--
-0-0-0000-----00--0
0*--0-**1010-0..-01
0-*00--0-01-0-0--0*
0*0--00-0---*0--.-0
---0-----0----0-0-0
-*---10-..*-00*-1--
-*00--*0-000-010101
--001-110-0--0-1---
0-1-..1100--0-01---
0--00-1100-----0-01
-10-0010--1--00-00-
-0--1-1--0-00----00
0-0-00------.--00--
0------0-0-0--00---
*00----0-0----0-0-0
*-----0------0-----
0-0-00-0----0---0--
--0---1----*00-0-0-
-0-0------0*--0-0-0
--------..-**--0-0-
-000---0-00---00---
-1*0--0--..0.00*00-
--------000-0--10-0
00-0--011-..-0-0---
0-0--0000-000-0----
-0--0*10--0*10-0---

Generation = 10, Population = 237.
1*11*---1-*0-----*0
-.0--1*0-0*-1-01--1
-.11-0...**.*-*.--.
0*.--101--.**0-110.
.*11-.*-1.1..*0-..-
.-11100*.0---*-1-1*
**---*--**.-....---
*.1--..1-*1**-...1.
-1...-..111--1-*-0.
*-.-..**-0-0--..*1.
**-..1.1-----10**-.
-*.0.--0-0-1-1*0--*
0..-1-*-001111*.1.1
*1*--*--0*-**0--*0-
-.--1.0.-.-*-10110-
*-.1-1-*1*-*--*-1*-
*--1*00*0*--0-1-0-1
.-.1.*.0-11.10-0-01
*0--11.--1.*..-10--
1--0-*--*0*.-10*10-
-000-0--.*...10*1--
-1*----.-1.1**..-0-
*...---.-***.....*-
-----0-.--.-0**..*0
0.--0-0*.*..--..--0
-0-1000.11-*011.1--
-01*...0--1**--1--0

*** Life<Cell> 14x3 ***

Generation = 0, Population = 17.
0--
--0
-0-
--0
0--
-00
-0-
0--
-00
0--
0--
-00
--0
-0-

Generation = 5, Population = 26.
1**
1--
--0
-00
*-*
-0*
*.1
0--
-.*
1-*
*11
1.*
-0*
1*-

Generation = 10, Population = 13.
...
.--
.*.
..-
.-.
.1.
...
-.-
1*.
*0*
*-*
*.*
-1.
.*.

*** Life<Cell> 25x26 ***

Generation = 0, Population = 17.
-------0------------------
------------0-------------
--------0-----------------
--------0-----------------
-------------0------------
----------0---------------
-----0----------0---------
--------------------------
--------------------------
--------------------------
--------------------------
--------------------------
--------------------------
--------------------------
---0------------------0---
--------------------------
--0-----------------------
--------------------------
--------------------------
-----0------00------------
--------------------------
--------------------0-----
-----0--------------------
--------0-----------------
--------------------------

Generation = 5, Population = 163.
--0-0---.---0-0-0---------
---000--.0.01--010--------
---0-*0.--10-0-010--------
---01--0-0-010--00--------
----0-----0---0-1-0-------
-0---0--0--01--0-0--0-----
0-0---00-100111----0-0----
-0-----01---00------0-----
--------0-0-0-0-----------
---0-0---0-0-0--0-----0---
--0---0---0----0-0---0-0--
--00-0----------0-----0---
-0-0----------------------
--0----0----------0-------
--.--00-0---00---0-0------
0---0--0---0110---0-------
-0-.---0----00------0-----
0--0-00------------0-00---
-00---0---------00--00-0--
0--0-0-----.--.1*10---0---
---0-.-----------0------0-
-00--.---0-----0-0-----0-0
0-0-00----0--0--0-------0-
-0-01-00----0-0-----------
-----10-0----0------------

Generation = 10, Population = 232.
0-0-*10-*-.1--1*.---------
1---.---.-*1-1--*01---0---
*1-..**.-...--1--.---0----
*--1-*1--1--11-0.-0-0-----
10-0*.1..---110..--1--100-
----010-*1-1-*.-1---0-----
-010--1-.*0-**.-----010-0-
--1-----*0-0*--0--0-------
01-100-1.--1*1--------0-0-
-----0----0-.-0-----------
------01.-0--*------------
------11--01*-10----0-----
--.*0-0-1----.100-----0---
---0-0-00----*----0---1---
-1.011*-10011---0-0-*---0-
---10*0.-1**11.11---1-----
-.0..*-**---001-1-----1---
---0-1-0----*.*0*-0--0.---
1.-0-**---0011--*0-0.1----
-01*010---1.--..**.1-.101-
-11--.0-00-00-*-*0----1---
-*-...*0-00-..*0.---01----
--1*-*1*---1-.00----1---1-
0--*-001--11.-1**-0-0---0-
111-0.-------1--------0---

*** Life<Cell> 31x25 ***

Generation = 0, Population = 7.
-------------------------
-------------------------
-------------------------
-------------------------
-------------------------
-------------------------
-------------------------
--------0-------------0--
-------------------------
-------------------------
-------------------------
-------------------------
-------------------------
---0-----------------0---
-------------------------
----0--------------------
-------------------------
-------------------------
---------------------0---
-------------------------
-------------------------
-------------------------
-------------------------
-------------------------
-------------------------
-------------------------
--0----------------------
-------------------------
-------------------------
-------------------------
-------------------------

Generation = 5, Population = 96.
-------------------------
-------------------------
--------0-------------0--
-------0-0-----------0-0-
--------0-------------0--
-------------------------
----0-------0-----0-----0
---0-0-----0-0---0-0---0-
---00-------0-----0--0--0
--0-0---------------0-0--
---00---0------------00--
---0-0-0-0-----------0-0-
----0--00--------0----0--
----.-0-0-------0-0--0---
0------00--------0--0-0--
-0-.---0-0-----------1---
0--0----0------------1---
--0-0------------0--0-0--
---00-----------0-0--0---
---0-0-----------0-------
----0--------------------
--0------------------0---
-0-0----------------0-0--
--0------------------0---
-------------------------
0-----0------------------
-0---0-0-----------------
0-----0------------------
-------------------------
--0----------------------
-0-0---------------------

Generation = 10, Population = 115.
-------------------------
-------------------------
-------------------------
---0-----------------0---
-------------------------
00--10--------0-0--01--0-
---1---------------------
0-1*1-0-----0-0-0---.11--
---0-----------------0---
0-------------0-0---0-.--
---0---------------0---0-
--1..------0-0-------*---
--1---1------------------
0-*-*-.1-0-000-0---11--0-
-10-0110-----------10.10-
-0-.--*.1--1-10---0-..1--
-11--1-0-----0----0-..--0
---**1--0---0------10.-0-
0--0-------0---0---11.10-
---.---------------------
--1----------0-------*---
-0--*0-------------0---0-
-------------------------
--01--0--------------0---
----1-----0----------0---
----1--------------------
------0-0---0------0---0-
-------------------------
0---------0----------0---
-------------------------
--0----------------------

*** Life<Cell> 34x3 ***

Generation = 0, Population = 17.
---
---
---
0--
---
---
-0-
-0-
--0
---
---
---
---
---
---
0--
---
0--
--0
--0
-0-
-0-
---
---
---
---
---
---
-0-
---
0-0
00-
0--
--0

Generation = 5, Population = 44.
---
-0-
010
0*-
---
--0
0--
-1-
1--
-1-
-10
1--
---
-0-
00*
--*
0*1
---
*.*
-1*
---
-1.
0*1
-1*
-00
---
*--
-*-
*01
.1-
*-0
*--
.--
--0

Generation = 10, Population = 42.
-.*
0.-
-.1
1.*
-.1
1*1
1*.
-**
-.-
**-
01*
.1*
--*
---
.-.
0-*
...
-.-
.*.
.*.
0--
0*.
*.*
1..
-.1
---
.*.
..-
.1.
.*-
..*
*.1
*.*
*-*

*** Life<Cell> 1x40 ***

Generation = 0, Population = 29.
0000-00000-00-0---0000-000000000--000-0-

Generation = 5, Population = 18.
.11.01--1**..0.00..0..0--0--1-..**.-1-1-

Generation = 10, Population = 6.
......**.....-.....-.....-..**.....1---1

*** Life<Cell> 10x4 ***

Generation = 0, Population = 18.
---0
-0--
--0-
0--0
0-00
--0-
-0-0
0-00
---0
000-

Generation = 5, Population = 19.
-**-
--1-
1*--
.--.
--0-
*-.0
-01*
*-.*
-*11
11*-

Generation = 10, Population = 16.
-.**
.0.*
.*1.
..-.
.1-1
.0..
-11.
.**.
*.*.
...1

*** Life<Cell> 49x11 ***

Generation = 0, Population = 22.
-----------
-----------
-----------
----0------
-----------
-----------
-----------
---------0-
-----------
--0--------
-----------
-----------
-0---------
--0--------
-----------
-----------
-----------
--0--------
-----------
-----------
-----------
-----------
-----------
-------00--
-----------
-----------
-----------
-----------
-----------
-----------
-----------
----0------
-------0---
0----------
-------00--
-----------
----0------
-0---------
-----------
-------0---
-----------
-----------
------0----
0-0--------
---------0-
-----------
-----------
--0--------
---0-------

Generation = 5, Population = 187.
-----------
-----------
0-------00-
-0-----0110
0-0-----00-
-0-0-------
--0-00---0-
-0-0110-0-0
----000--0-
-0-0-0-0---
0-0---0--0-
-0---0--0-0
--0-0----0-
-------0---
0-----0----
-0---------
------0----
-0-0-0-0---
0-0---000--
------0110-
--0----00--
-0-0-------
--000-----0
--01*1.--..
---00-----0
-----------
----0--00--
---0-00-10-
0---0-01---
-0------0--
------01-0-
-0-00---*0-
00-1-0-11--
011-.0-1--0
-0-*1-***..
1---*00---0
*---001..0-
-10-0------
-000--1-10-
--*1--0000-
000--0--0-0
0---0----00
0--01-00-1-
-00-*0**000
0-0-0--10-0
-----00--0-
--0-0010---
---0-01--0-
----------0

Generation = 10, Population = 195.
-----------
0-0-------0
-0---------
0-0-0-1.1-1
---0-------
000--0----0
-1---------
----*--0--0
-----------
010-**0-0-0
-----1---0-
------0----
---0-------
--0-0-00-11
-----0---1-
--0--01*-*1
-----------
0-0-0-01-10
-0---------
----0-0-1.1
---00-101--
---*--...10
-01--00.-0-
-11-.*.*-..
--1---*----
0-11--.-.-0
-------.-.0
000--.0--*1
--0-0--.--0
--1--0--0-0
-1--0-..1*0
-.*.*---*10
-**.1*-1-1-
-..*.1.-00-
-*.*.*.*.*.
*.1-...-**0
*-.1.***.*-
--00*001*-*
10-0-**.**-
.*..--..-0-
-010---*1--
*0-*...-0-0
*1-1..0*.1-
0.0**-*.-.-
10.0...*0--
1.0-**0-0--
-1-*.1-*---
-0-1.---*00
-0-00*.-00-

*** Life<Cell> 11x16 ***

Generation = 0, Population = 43.
-00-0--0---0----
-0----0--0--0---
0-00--00--00---0
0------0----0-0-
---------0--0---
---0--0-----0---
----------0-00-0
-0-------00-----
---0------------
0-0-00----0--0--
-----0-------0-0

Generation = 5, Population = 76.
1**00-00-*.0----
01-.10---*-.1---
-*..*00-00-.--10
*1.**--1--.-.-*0
**-*1*11*-.11---
.-0-..-..---.--0
--1*----.-.1**1-
---0-011--*1-.--
0.000-010-0-.-0-
**-*.0*--1..-.*.
-*--1.-100-.--0-

Generation = 10, Population = 75.
-..--.**-..*-1--
-.-..*.*-*1.*00-
*....***1-...*-1
*..*....--..**.0
*.*...-*.**.****
*-.1.**..**0.-*-
*0...---.-*-..*1
.1.1..**11*-1.-*
-*.1.-1**-...0*-
.*-.****-*..***.
-.1.1.*.0-*.--.-

*** Life<Cell> 5x42 ***

Generation = 0, Population = 30.
-0-----------0-----0--------------0-----0-
--------0--------0-0-------0--------------
-----0-----0---------------000----0-0--0--
---------0-------------------------00---0-
-0--00-0----0-----00--------------0------0

Generation = 5, Population = 101.
---0-1--0--1--0.-.0.--0-0--.11*------0.--*
-0-0-0------*--*-*0*0.0-010--*0*00-1-0-010
0-01**000.---*-*0--0-001-11--*1-1--*.**-1-
0--01--.**-*0---01-.0-0-00-1010-*-1*0.-1-0
*..-...-0.-.----*...-1*10-01-**-0---1*1010

Generation = 10, Population = 85.
-*-.1.--0....01.-.1.***-.1-*.**-*-10-***0.
.1*0*01-*1*-.-**-**...1-0*1-1.0.*-1.*10..0
.*-*...-0*--1**.*-----0.-...-...*.1....-.-
-.-.--0.**-*1-1-.*..0-.-101..-.-...*1.....
..*-.**.1.0..-0-....**.-0**1-..---0*.**..-

*** Life<Cell> 9x3 ***

Generation = 0, Population = 15.
0-0
000
0-0
0--
000
-0-
---
--0
-00

Generation = 5, Population = 11.
1--
.-*
--.
---
*1.
1--
1-0
.1*
-*1

Generation = 10, Population = 15.
10.
*..
1-*
1**
*.*
1*.
.0-
.-*
1.-

*** Life<Cell> 40x17 ***

Generation = 0, Population = 27.
-----------------
----0------------
-----------------
-----------------
-----------------
-----------------
-----------------
-----------------
-----0-0-----0---
-----0-----------
--0------0-------
-----------------
-----------------
-----------------
-0---------------
-------0-------0-
-----------------
-----------------
-----------------
---0-------------
---------0-------
0-----------0----
---0-------------
--------0--0-----
-----------------
-----------------
-----------0-----
-----------------
----------0------
------------0----
-----------------
-----------------
-----------------
-----------------
-----------------
---0-----------0-
-----------------
-----0-----------
--------0---0----
-----0------0----

Generation = 5, Population = 246.
0---0---0--------
-0-0-0-0-0-------
0---0---0--------
-----0-0-----0---
-----1--0---0-0--
--001-00-0---0---
-0-00---0-0------
-000-*---0-0-----
0*-1-.11-00-0----
--01--0.0-00-0---
1-0-1-*--0--0-00-
00-----10-----0-0
----0*-*0---0-00-
-00-0-00-0---0---
01*00*0-0-0----0-
-00--0--------0-0
0-------0-0-0--0-
---0-----0-0-0---
----0---0--00--0-
-1-0-0-0-00-000-0
--0.--0----10-000
-0.------0-1-0-0-
--00--01--0-0--00
--0*100*01*0.-0-0
0--00--00*1.---0-
-0-0---0-0-.0--0-
0-0-0-0---.---0-0
---0--0--00-1-00-
-----0-0---.-0-00
------00-0.0--00-
---0----0-1-0--00
--0-0-----00--0-0
---0-0---0-00--0-
----0-0-0-0010---
---------0---0-0-
----0-----01-00-0
-0-----0-0-01--0-
0-0---0-0-0-.---0
-----0--0-------1
0---0-00**0-.-1*-

Generation = 10, Population = 261.
--10-------0-0-0-
0--11.-1--0---0--
0---0*-----0-0---
--1-01------0----
-0001.---0-------
-1-.*-.--0-----0-
*.1-0**0-10----1-
-.-.1.011*-0-----
-...*.*.--*101-.-
-011-.-**-01-----
.*-1*-.*--0-0--.-
0.---**1----00---
1-*-0***-1-------
--01--0-010---00-
.*.-1.--0--0-1---
---0-.0--00-11---
0-0--1---1-----1-
--*--1--0--*0--0-
0**10----.0*-----
--*-1-0--*.-*1---
0-0.-1-01-0-0----
*0.*-1-*.--*1-0-0
1-011-1*0*.*10---
*****--.-..-.*---
-01*-00-*.-.---.-
0--*101*-.1.-.-*0
-011-0*1-*.-.*.-1
0---00.0-..-*.-*-
1---*-0..1*..0.*.
0--1-**0.-.0001.1
-01--0-1-.**-11-0
0--11-11*11-.1---
---0-----0-.-----
--------10*..----
------0--110--0--
-----0-0--*---.00
0---0-----1*.*01*
----0--1*..*.-.--
0------1-011-0*-.
--1-*-10**..**.*1

*** Life<Cell> 8x44 ***

Generation = 0, Population = 28.
--0---------------0------0------------------
-----------------------------0-----0--------
-------0---0------------------------------0-
-------------0----------------------0--0---0
--------0------0--0----------------0--------
-----0-----------0----------0---------------
0-----------------0-0-----------------------
---0-0-----0-------00---------------0-------

Generation = 5, Population = 167.
-0----*-*00-001*0--00**0-0---100-0010--0-0-0
--000---0-----0-0---000-0101*-------*---0---
--1-0-0-100-0.0.0---10--010-00-0000*-0-00---
0-010.000-0*0-0.0.0--00----------01-11*--10-
-----0----1*1*-0.-.*---0--0--00-0-----0*-0-0
------010--*0*0*0-0-.-001---0-0--00*10-0--0-
---0-00-0-0100--*0-1.-*0-0--00-----0---000--
------000-000--0--..*1-*-0-0-0-0-0-0-00*10--

Generation = 10, Population = 148.
0--1--*0*-.0--..---**..-*.*-*.---111*-*0----
-0-.1.0*-0*101*---11.-*-1*--..-001*-*1*01---
.**11-*.*-0...1.-*---..-0.01-.-*0.*.*--.-110
--1.1.--0-*..-.**.--0-1-*--1-1-*-1--..*-*1.*
-------1-0*.**1-.*..0.-**1..1*0--*0*0-1.0.**
-0-1-.-----*0*0.**0.*.-*.1--..*-1.-...*101--
----0-..--1.0---*....0*1*.*-------1-1-*.*-10
---0-00---**-.00......0.1.-1-*-0--1--...**0-

