*** Life<FredkinCell> 9x9 ***

Generation = 0, Population = 3.
---------
---------
---------
---------
---000---
---------
---------
---------
---------

Generation = 1, Population = 10.
---------
---------
---------
---000---
--01-10--
---000---
---------
---------
---------

Generation = 2, Population = 12.
---------
---------
---000---
---------
-012-210-
---------
---000---
---------
---------

Generation = 3, Population = 30.
---------
---000---
--01-10--
-00-0-00-
01-3-3-10
-00-0-00-
--01-10--
---000---
---------

*** Life<FredkinCell> 10x10 ***

Generation = 0, Population = 4.
----------
----------
----------
----------
----00----
----00----
----------
----------
----------
----------

Generation = 1, Population = 8.
----------
----------
----------
----00----
---0--0---
---0--0---
----00----
----------
----------
----------

Generation = 2, Population = 16.
----------
----------
----00----
----11----
--01--10--
--01--10--
----11----
----00----
----------
----------

Generation = 3, Population = 16.
----------
----00----
---0--0---
--0----0--
-0------0-
-0------0-
--0----0--
---0--0---
----00----
----------

*** Life<FredkinCell> 20x20 ***

Generation = 0, Population = 19.
------0-------------
--------------------
---0---0--0-------0-
------0-------------
--------------------
--------------------
------------0-------
---------0-----0----
--------------------
-00----0------------
-------------------0
--0-----0-----------
----------------0---
---------------00---
--------------------
--------------------
--------------------
---------------0----
--------------------
--------------------

Generation = 1, Population = 64.
-----0-0------------
---0--00--0-------0-
--0-0---00-0-----0-0
---0-0----0-------0-
------0-------------
------------0-------
---------0-0-0-0----
--------0-0-0-0-0---
-00----0-0-----0----
0110--0-0----------0
-0-----00---------0-
-0-0---0-0------0--0
--0-----0-------10--
--------------01-0--
---------------00---
--------------------
---------------0----
--------------0-0---
---------------0----
--------------------

Generation = 2, Population = 66.
---00-010-0-------0-
------1-------------
-0----0-11--0---0---
----0---0-----------
---0---0--0-0-----0-
------0--0-----0----
----------0---0-----
-00--------0-0---0--
------------0------0
1-2100--1------0----
----------------00-0
010-0-01--0----01---
--------------0---00
--0-----0----01--10-
----------------1---
----------------0---
--------------------
-------------0---0--
--------------------
---------------0----

Generation = 3, Population = 133.
--011---1--0-----0-0
-0-000---00-0---0-0-
0-0-001--200-0-0-0--
-0---00-1-0-----0-0-
--0----------0-0-0-0
---0-0--0-0-0---0-0-
-00---0----------0--
0110--------0---0-00
00-000--0------0-00-
--3--100-0--0-0--0--
-0-0-0000-0----0-1--
1-1---1200-0---1--0-
00--0-000-0---1-1--1
-0-0---0-0--01-1-2--
--0-----0----0002-0-
---------------010--
-------------0--00--
------------0-0-0-0-
-------------0-0-0--
--------------0-0---

Generation = 4, Population = 66.
--12---1----------0-
--------------------
---0---0---10-----0-
--0------01----0----
------0-------------
-00----0------------
---0---00-0-----0-00
--2--00-0--0-0-----1
----------------0---
11-1-21----0---00---
------------0--1-2--
2---0-2--1--0--2----
------------0-------
-10----1---01--2---0
-------------------0
--0-----0-----------
----------------1---
-----------0---01--0
--------------------
---------------0----

Generation = 5, Population = 150.
-0231-0-1--------0-0
--0--------00-------
----0-1-12-210-0-0-0
-0----00112-0-0-0-0-
-0---0---00----0----
011----1--0-----0-00
-00-00-------0-0--1-
-1--011010----0----2
0000----0----0--10-0
22---320--0---0-----
-0-000---0--100-0-0-
-1-0---20-00-00310--
000-0-00-0---0-----1
0210--0-0-01-11-0-01
-0-----00--00--0--01
-0-0---0-0------1--0
--0-----0--0----20-0
----------0-0-01-00-
-----------0----0--0
--------------0-0---

Generation = 6, Population = 152.
013-2----0-00---0---
--1------00----0----
-000--20--0--10-0-0-
010-0---2--010---0--
----0-----100---0--0
1--00-0-0-10-0-0---1
-1------000-0-0--020
--2--2--210--0--00-3
---1---01-0-0-0021-1
-3-----1---00010-000
----------0-211112-0
--1100--1-11011-21-0
----------0-0-10-0-2
--21-01-101-1-22---2
------------1---20-2
010-0-01--0-0---2---
--------------0---01
--0-----00----12--10
----------------1---
-----------0-0--10-0

Generation = 7, Population = 193.
1----0--110110---0--
00--0-100---00--0-0-
---1-031--1---10-0-0
12-0100--12-2---0--0
-00--00--0---0----01
--11----102---0--0--
---000001110-------1
----0-1-32100-0--10-
-0--000--0101--1320-
2-31--22--01-1-1-1-1
-00000-0001-3--2230-
-12--122--2--22--2--
----0-0----0-02-11--
-232-12-2---------0-
00-000-000-0-00--1-3
1-1---1200--10003-0-
00--0-00000-001-20--
-0-0---0110--0-3-0--
--0-----00-0-00-2-0-
----------0---00-1--

Generation = 8, Population = 62.
2-----------2-0-----
-11----1------------
--02------22--21--01
2-0---1-2-----0-----
---0---0--1-----0-1-
---------------00---
----1-1-------------
-1-----0------------
------1-------------
----03---01---------
---1---1--20-1----1-
2---0-3---3-----2---
--------0-------2---
-------13-------02--
------------1-------
---------1----------
--------------------
-10--------------1--
-------------------0
--0-----0------11---

Generation = 9, Population = 146.
--3----1---1---0----
-2----1-0-000--0--00
0-130-31123311-20012
--10-0-0-1-0-01-0--0
0---0----0-0--0-1--1
---10-01--2---01-00-
-1-0-----------00---
0-2-0-1-3-----------
-0--0----01---------
----14-211---1----0-
0-0-00--0-31--1-23-0
-1------114--2-3320-
0---0-0-100----0----
------22-0--1--2-30-
-------000-0-0--21--
--------0-0-1-------
-00------0-------0--
0210------------1-10
-0------0------0200-
-0-0---0-0----0221-0

Generation = 10, Population = 154.
---3-------2--010-00
--10002-10----0-----
-0-410-2234-2-2-1-23
-2----112-2-2--0----
-0001-0-01110--02--2
111---121----0---11-
--011--01-1-----1-2-
---01-----1----00---
---1--101-20-0----0-
23312--32-110---0---
-0----0----231-2----
2----132225-0-2-431-
---0--10---0002-----
0---01--------230-12
--------1-0---0-3---
-11-----1--0----3---
------------0------1
1-210---11------2--1
-----------------1-0
01--0-0-0-0--0133-0-

*** Life<FredkinCell> 20x20 ***

Generation = 0, Population = 38.
------0-------------
-------------------0
---0-0-0--0-------0-
------0---0---------
-------0-------0-0--
-----0--------------
---------0--0-------
---------0-----0----
--------------------
-00----0-----0------
-------------------0
0-0-----0-----------
----------------0---
------0--------000--
----0--0------------
----------0---------
-0---0-------0------
---------------0----
----0---------------
--------------------

Generation = 1, Population = 118.
-----0-0-----------0
---0-000--0---------
--0---0-0010-----0--
---0---0-010---0-00-
-----0--0-0---0---0-
----0-00-0--0--0-0--
-----0--0100-0-0----
--------010-0-0-0---
-00----0-0---0-0----
0110--0-0---0-0----0
00-----00----0----0-
---0---0-0------0--0
0-0---0-0-------1---
----00--------01110-
---0-0--0-0----000--
-0--00-0-0-0-0------
0-0-0-0---0-0-00----
-0--00-------00-0---
---0-0---------0----
----0---------------

Generation = 2, Population = 107.
---001010-0-------0-
------1---1------0-0
-0-0--1-11--0--001--
----00------0------0
---0---0--1-00-0-010
---0--11-10----1----
----------11--01-0--
-00--0-----0-----0--
---------1--0------0
--2100--1--0--------
----------------00-0
-0--0--1--0--0-010--
----0--0------0---00
0-0-1-----0--012-210
-00---0--0---0--1---
------0-0---0---00--
-----------0---1----
----------0--1---0--
-00--10------0------
---------------0----

Generation = 3, Population = 199.
--01--1-1-10--------
-0--0-----200--0-10-
0-----2-22-01001--0-
-0-011-00010----0--1
--01-0-10-2--1-1-1--
--01002--21-00--0-00
-000-000----001--10-
01100-0--1-1--000100
-0-00-----00-0---00-
-13--100--0-----00--
-000-0-00-00-0------
0-00100200-00-012---
0000-0010----01010--
-01-2000---00-23132-
-1-00010-----1--2000
-00--01----------10-
------0-0----00-----
-00--00--0--02000-0-
01100210--0-0100-0--
-00--00------00-0---

Generation = 4, Population = 106.
--12-1---------0-00-
-----0---------1-2-0
-0-0---0---12-----1-
--0---0--12---00----
---2--0------2------
--1----1-3---1-----1
---1---10-1--1--0-10
1-2--01-0-02-0-----1
-------0-------001--
02-1-----0-0---01---
----0--1-0--0--0-0--
1-1---1--10-1--2----
-1---1------01------
-1-----1--011--4----
0--11---0--0-------1
0-1---2-0-----0-----
-----0----------00--
------1----0---110-0
1------10-----------
----------0----0----

Generation = 5, Population = 186.
-023-21-------01--1-
-00-0110---00-02-3--
0-0-00--22-2300-----
---0-11-023-0-110-0-
--0-001---2-03-1---0
-0-1---20---0-0-0--2
0-0-00---12-0-11--21
----012-1--3-100-1-2
-000-0---10--00-1200
13------11----01-0--
-00--0------100-0-0-
-0-01---0-1---0320--
-2--0--1-0--121-----
-210200--012--2-1--0
1--2201-10-1--00--0-
1---0---10-0-0-001-0
0-0-0-0-0--0--0---00
0-------0-0-0-022---
-1-----21000----00-0
0------000-0--0-0---

Generation = 6, Population = 164.
0-340------000--0--0
--10--21-02--01-----
-010-12---1---11011-
0-0--2---3-0---21---
----11----3-14-20--1
----0--31--0-11--0--
-0-1---10231112---32
11----3--10-0---02--
---101--0-1-0-1-2---
2431---02---0012-100
-11---0--0002-1-1--0
1-11-----1-0-01-31--
0--0----010-2-2--0-0
---1-1---1-----4-3--
2----1---10-0---2--1
-01----02--------2-1
----1------1--11--1-
1-0-0-1--01-------0-
1-1---1--11-----11--
------0-1-0100--1--0

Generation = 7, Population = 197.
---51211-0-1---1-01-
0-21---2-1-------300
-1-------22----21-20
-01-----0----0-32-01
0-02--110---2-0---1-
-0--1-2---11-2------
-1------134222-10143
2-2-0---1-13---0-3-2
-----2--112--0203200
354--1-1----1--3-2--
0-20-0-----1---020-1
20--1-1----1-12---0-
12--01-11-10-23-----
--12-20---1-----142-
--022210--1--1---002
-12000213-000-00--02
00-0200000--00220-2-
2-1-1-200-----022-10
2-2002-2--2-01-0-2-0
0-0--01--0---1002-0-

Generation = 8, Population = 106.
0--------1--0-0-----
-03--1-3---0--------
-210---0--32-01--131
------1-1-3---1---1-
---3-1---03-----012-
-1----3------3-100-2
-2----01---------2--
-1-----0--2---------
-0---30------1------
----0----10---------
---101-1--02-0----0-
3---2---0-------3---
-------22------010--
0----3-101----2425--
--1-3----1-----0----
--3------0--------1-
-----1---1---------0
-02-------1--2---0--
--3-1--3----1------1
1-1---2-1------130--

Generation = 9, Population = 177.
--3--2-11-1----1----
----0--401-1-0---300
0-2101-1-2---1-21242
-01----0-3----2320--
-00---1--1-0-40--2--
0211--4--31-0--2110-
0-0--0--1-4--2-1-343
2-2--13111-3-1---3--
010--41--1--0-2-----
-5--110122--------0-
0-22-2-----3--1-20-1
-0--3--21111-1--4-0-
----010-3---------0-
-21-----1-1--03-3-2-
212----0--1----1-00-
-14000--3-0----0-2--
-0--2-0-02---0---0--
21-010-0---0--0-2-1-
2----2----20---01-0-
--2000-0-0--0-02-100

Generation = 10, Population = 194.
-0-5-----1---00-0010
0---11251-2--11---1-
-2--12--2-32321-2-5-
--2-12-1--30-0-431-1
-11--12-0-3-25-20---
-3-21-53---1-3------
-2--010-2-5--3-20454
-1-0024-2-2-02-004-2
-2-1-5201-2--1-0-20-
364-2-1---001---1---
--33-3-----42----1--
----40-32------3511-
--00--12---0--3--0-0
---2230-2-221144-5-0
3-3-321-11-1-1-22--2
-25-11--4010-001----
---0---0-3-10--2-1--
---12-2--0-10--23020
3-3-1-1---3---0--2--
103-----------1-3211

*** Life<FredkinCell> 30x30 ***

Generation = 0, Population = 74.
------0-----------0-----------
-----0--------------0-0-------
-------0-----0------0--------0
-----------0--------0--------0
-----------------------------0
0-----------------------------
-----0--0--------------0------
------------------0------0----
--------------0---------00----
-0-0---0----------------------
---------0--------------------
--------0---------------------
0--------------0--0-----------
----------------00------------
-------0------0----0-------00-
----------0----0-------------0
-0----0--0--0----------0------
--00-----------------0--------
------------------------------
----------------------0-------
-------------------0----------
-----0-0---------------------0
----------------0---------0---
----------------0--------0----
---------------0-------------0
------------------------------
-0-0-0------------0--0--------
---------0-00---0--------0----
-----0---------------0--------
------------0-0------------0--

Generation = 5, Population = 418.
0--0-01-1--001200-101-200-0---
11-002-2-2-1-000204-2-3010----
000---402---0---2-100--2-1030-
---0-00--1-0---2-0-0------0-0-
-0000--1-----1--00101-0020030-
0---12010---000---0-3--00----2
02--2-22----12----012-----0---
11--0----0----------1111---100
2--0-0-000-0-----0-0-------0-0
-1-----1----000-221000-0---0--
00-0000-1000-23-00--0-0-10011-
-00020120--01---00-0--0--200--
0---1---0-012--0-----01---0--0
0---0---0-00-120--0--000-0--01
-1--0-20-1---0--21--0-00----31
0010-0--3-012--02-0-00-0---4-1
--11-0-04---0-02------0---0110
3-1-131-0-1--00--000----0-----
0----0--0-0--0-0-0--0----0--10
-0----00---00--1--------02---1
01---0-002---0-00-0--1----0001
012--00-01--0-----0--1--0---01
010---0----0-0--10-----0---0-2
-0-0----0--1---0-000---001010-
----0300-002--0-1----1--02-10-
----0--200----1000---00----2--
----0---0-0-0--1420-1--10-10--
-0--0---11--223----02---0-0--2
0-0-010101-000-1-----1010-000-
-0---0-023--30-0---0-00--10-01

Generation = 10, Population = 390.
--02--43-0-----1-----033---2-1
6211----031---522--020-0--1-42
---2-1-33--4--12-01-1---3--4--
10-1---101--1---0-035--0-10114
-30---12---20-10-2--302--0---4
----3-31--000-3--3---1100-011-
-52220340--0--1-012---1--10-03
--0--00-02-1-1--1--1-1--02-30-
5--00-111-20--1--3--21--2-2051
----0--4-3-----02-23---00-01--
-3-0-1-42-001---23--------2-4-
-----1-220-3-101-----0---2-0--
-1--1--4011121-11--3--20--3-2-
---0-211-40---------10-1--1---
32-1-1--------1--3-4----45-34-
-2------5-12-11---02---210----
31-2----70------1---220-22----
---1-440-1---010-----1---2-1-0
----11---3-----11303-2-102-0--
----0-1--20--102-10--2-------1
130--1--3-----1-21--14-1013222
---1-----1--30-2--3--4-000----
02---0-2--21---3-12-2-1141-534
-210--1-21-1----2--3--10-31--1
----16-2-----------1----03-302
0--4-2-3-0-12112-11-1-2------1
-----00-0--0-0-16---3---1--022
-3--3-01-1133----023--0-1-0---
---1-----201-1----1-------2--3
-10-3----3----0-01--201-------

Generation = 15, Population = 457.
61021--8-12-----0--212-53----3
924-44-32-642-82-06--05-4012--
-21-124-6---3-12--1----84--716
22--331-330-42--2--4-1--3-----
1---23--2-3----1-5-------3--46
1--1---44-310-413-1--1----3142
2-55--57----3--2-2-33-3---0-18
4-2-30-2-32-3232--3322-4---4--
6--21012--4---------314-3-3--4
-2-03---3612140---45234-----02
4-----092-11-453--4365--2-525-
-0--323--2--2-13311230-1-50--1
--211-1--1--23-24-23---------2
------1-3631----13--2--4-0--14
45142-6-41-5222--3--52----78--
---11--2--254-104--4-24--206-2
53--44----163-152-5-5-3123-5-0
51---4--01-4-2-2-004-43--43400
--0--2224-311-14-8---206-3-3--
22--32-0-2235-3--302-401-221--
44-11--1431---3-3--36-------43
------2--2--6233----2-12--1-24
-3-311-4---2002-4---323-7-----
---3--2--4-441-32114-----6---1
1321-7-312--2-327-3--30--32--3
0-----06--3-3----2444234-1230-
101---02----1322-54--3-3--2-5-
---3----4-4--4-1-3-6--0-2--025
-2--232-04-4-114-33301-1----23
-21-63---40-5--2--25--3-------

Generation = 20, Population = 448.
--14--8+42-305--3-4---57--442-
-5--7--6277-3-9--26--08-7-4-53
2--325---6-64-4-53--3--+---7--
2-1-6--34--15---32--9--1----34
362---3431-4366--5-23-45--4659
2-02755---4103--6-214-3231-1--
2-6-43-+---25-----7-5-4043---+
5--753--34----4-6-----27-4-5-6
-6--2--5---4-44----462-2426---
3-2-4--5-6-317--24-74452---112
45-2-3-+-1-23-----6--845--63-7
----34--332---446-13-0--37--2-
-344-6-5144326-264-6---14---33
3-4-44-33-31-2--242-4-3--14-3-
---525-24-374-255--9--2--6-9-5
2---------2-6----316---41--9-4
5---5522-2173--5247-876-58--30
-1-----3-2--------36----394510
------5-5-3-2-2-39----1-14134-
4-4-32---22-564-2--5----3---1-
--4---1-4--3--44-25--80-4---6-
-24-20-5----73--3-70-5-5---0-5
---4--35-1-2-----36----28-3764
25441-2-4----426---64--05---2-
23-1-80--3033--7-0-62--4---518
-336-4---03--3----4--2-5-22-04
-0---4352-1--4--8-67-61--1327-
-5-----5--5354--347+-2--------
24--3-5-342422--145--62-0----3
-22464--45-57-23----454-1---2-

*** Life<FredkinCell> 30x30 ***

Generation = 0, Population = 55.
------0-----------------------
--------------------0-0-------
-------0-----0------0---------
-----------0--------0---------
-----------------------------0
0-----------------------------
--------0---------------------
------------------0------0----
--------------0---------0-----
-0-0--------------------------
------------------------------
--------0---------------------
0--------------0--0-----------
----------------00------------
-------0------0----0-------00-
----------0----0-------------0
-0----0--0--0-----------------
--0------------------0--------
------------------------------
----------------------0-------
-------------------0----------
-----------------------------0
----------------0---------0---
----------------0--------0----
---------------0-------------0
------------------------------
-0-0-0------------0-----------
---------0--0------------0----
------------------------------
------------0--------------0--

Generation = 10, Population = 392.
--0--02-2-0-3--0-----01-3-0-10
231--1--1-02--2-1--03-----0-2-
---0----5-0---02-21110--2-21-2
2--3-1--03--12--0-2-31----0-3-
--0---11-1-2041--11-6-23-2-0-1
---20-5---000-3--2----1-0-0110
-11-12130----311-1--0-10-00-22
--10-10-12-0-1-01--2-1--01-20-
4--10-112-10-10-2-11----0-104-
-1-220---2---1-03213---10-00-0
-1---3-03-011--22-12---0--2-20
---1-1--30-0-10------0---0---2
----11-0110121-111-3--1---2-23
------2---0---------10-0--1--4
33---3-1------14-3-3-2--34-344
-2-2-1--4-1--11---03---212----
30-1-2--6----3--21--1-0-21---3
-0-0-110-0-2--112----0---0-1-3
----1--1-1-0----031-----1--0-1
-1-10-21--10-10--0---2-------1
1100-2-031----0-21-20---012222
---------1----1--23--2-001----
00---1-2--22---2-12-3-4-41-534
--0---1-31--51101--2--11-41--1
---001-------2---------01--30-
00-----12--04-20-0-01-2-1----0
-1----0-1----1--0--121--0---01
---21-2--2--3---2-10-00-0-----
---------100------1--0----13-5
-00---0-------0-21-1-1--------

Generation = 20, Population = 431.
+-33---34--14--12-61---2--4-5-
-5-05---3-3-317---4---4-722-52
3-3125-4-6--1-6-3--43----255--
2-2-4--335--3---2--24--4----52
33----144--22-5--4--7-38---325
243-6552--3431--4-33511-13-3--
0-3034-3----1--1--4-1-323-----
5--233--33-2-240------13-2-3--
----1--1---1--53----6---0143-5
3-254--6-2--361-45--5454----06
4--1-6---3-23----3----42--63--
----62-1552-3---3-5151--3--00-
--22-1--333532-23-2-----4--447
644-5---22-2-2---2-24-32-64-3-
---73--54-442--56--6-------5--
2----------14---65-5---41--7-3
54-51-33--5-6-16552-4---68--5-
-----2---3--2-44--3224--384205
-----65-6-2-1-2-2-9---03131-3-
5-4-3--4-24-24--4--0----54-21-
--0--3324--5--12-4---41-03--2-
-14211-----00----761-3-3-6---3
-3-0-533-3-4-----275-1--5-3-7-
--1-3-1-55-1-614---53--53--1-3
42-5--2---323--5-1-52--2---73-
401--5-3--31-5----1------43-22
-----524340-----3-5--321-31-6-
224-42----3251--6144-7-11---45
5---0-4-07241---1-3---0-1----7
53-2-4-256-43-32----252-2--4--

*** Life<FredkinCell> 40x40 ***

Generation = 0, Population = 94.
---------0------------------------------
------------------------------0----0----
---------------------------0------------
------0----0------------------0---------
-------0-------0---0--------0-----0-----
----------------------------------------
-0-------0-0----------------------------
--------0-------0------------0----------
---------0---------------------0--------
--0------------------0------------------
-------------------0--------------------
--0-----0-----------0-------------------
----------------0---0--------0------0---
------0---------------------------------
-------0-----------0--------------------
----------------------------------------
-------------------------0--------------
-----------0----------0----------0-0----
-----0----------------------0------0----
--------0---0---0-------0---------------
--------------------------0--0----------
0--------------------------------------0
---0------0-------0------0--------------
------0----0-------0--------------------
-----------------0----------------------
-----0---0------------------------------
---0-0------0-------------0-------------
-0---0---------00-----------------------
------------------------0----------0----
-------0-----0-----------------------0--
--------0-------------------------------
-------------------------------------0--
-------------------------------0--------
---------------000--0-------------------
-0--0-------------0--------------------0
-------0--0----------------------0------
-0-0----0---------0--------------0------
------------0---------------0-----------
----0-----------------------------------
----------------------------------------

Generation = 10, Population = 656.
-------0-0-1-0---0----------21-1-030----
--010-0-1--2--0-------2110---01----23-21
-----1-3-2---0-110---2-1-----31221--110-
-0---1--623-22--222-3---2--15-1-2--1112-
-0-1----------06--02-0--22-4---0--211---
--010-2-0--3--0-1--1010-0---1-4-10----1-
-----------3----10-0-----20--0--------00
0-0-0------0-00---00---0--0--0---1-----1
-0-------------2-1-3-2-2-2-21------0-2-1
--0-0---003-00-01---11--2--2--2-1--1-0--
-0-0----1---22-2-1-1-1-112--220--11-2--0
0--------0-21-0-------------12--01-----0
-0-0--0---20-100--11-12140----131-3-2-11
0---0-----2-1------2----2---110------2-0
-0-0-0---3-2-0-212-113-012002--0-00-21--
--01012-1-0--00--110-----1----12-----1--
-----2-2-21200-0--110----22--3-1-0-311--
--21--4-2---4--212---0--11-31------4-5--
-2---0-2-412--0110--2-0--1--1--0-1--4413
--21322-00-------123-11--121---3-31----0
-21--1-11-10110-2120---1--1----11-21--11
-2121-1--32---1-3--1----2--0-1-203---3-1
12--1-2-013-43-0-500--------33----1-01--
143--4-252-252-2-4--100--1---0-1-----0-0
--0--1--1-30-1---0331-----2-01----02---0
43-3-6----1-03-441-24-021--0---1---3----
-----3-30--3-0-10-----1----2-200----10-3
2----5--2-21-0-36-3-4-2--0--11-0-2-2---3
03-11-0----0-10---------0--2-21----1----
2004-530-0-11-3-30--------10-010---2---0
2--4-21-----1-0--1--0-----1--0--02---0-1
1---1--1-2---0-5-3-----111-0-0-0-2-1-0-4
2-0------0-----02-21-0---------0-2---1-2
-113---4-0-30-1-1-03-311---1131----2---1
--3-6-01-23-0---501----1100--2-3--------
0----4--1---23--2-2-0---02023-0--1--0--3
2010--4----2-12-3---2-013-221------1----
-0---00-1--1-----11-1----1--1--0--2--31-
-63322--2121--0---1-3---000------2-0-0--
----1-----0---1-1--12-0----------2-01--1

Generation = 20, Population = 663.
-0---0-0-2--1--45-161-----1-6-23-----0--
0-----02---5--0----2-256-33---14--36-73-
-2--------1-03-470013----2-0------------
----4-52--53-4--4--3---1--3-73213--4--5-
-4-6----01----5-22-----5--2---525-67---1
0-4-5----1-92-3--203--5--2---8---22-----
-1---214---31--135-26414--31-3-3--2330--
-2-031-243-3--30-42-4-14-4-3--33-31----4
1--01----4-423-3--2-2--62-5435122--4-5--
0-2--4-5------2-6----4--------5--2-4-2--
-1---1-2-14--3-51302--1-5--3----1--5--05
-----0-431--1333------0-5-2-44----24-1--
001-32--2--3---22---3--2-6-------6--4--2
----4-1----0---121-35------1-31--518-60-
-0-4-----8-435-4--22-9----1-42-2--455---
302-24-32-2-1--45-2---------3---4---0--2
03-10--41-3----5--343---0-------2214551-
--4-----4-42-336---52-215-391-2--1---611
2-31---345---51732-6--23--3----3352--6-3
1-43---3---32-353---4-4-1-36----5-333---
---51434----3--1-3-3--324----653165--3--
--62-64-535-2--2--1--2--42----133--1--1-
5-2--15---506--2--14--35---357-----234-4
-------4-345-7---63--2-6332---03-------5
-3-----06-6----21---3------435----6-222-
9----9---43-383-7--------0-22----2------
--2-352-2----124-32------36-----1-----1-
5-2--82-83--7--5-3--6-4--2-342--4---0---
-----3-2-6--1-2-3---4-2202---5--1----5--
4---3-7--322--6--3-1--12-5-4-6--45-50---
38364----02--213-2---52--1--4-----1--30-
2-0-2----4-322---9-2-----51-2--80----0--
-533--1------3--3-4443----25-1-3-53-13--
-4--3-665-3-3---2-3--6-3--3--6-01--4---3
9----414-----54-94--4---3416-7133-----0-
4---272----2-4-7----1-3----65-3--3-1---3
3-5---92-27----3-4----24---8-------3--02
-21-----2--35---6---2-1-3------35---4---
-76------45-436--15--2-33-5-352---04----
2---6--2233----5-5------3-1-2--2----51-1

Generation = 30, Population = 795.
---3----332-121-815-36252-2-7-2-----3---
-0--5-3---0-----6-45-5--25---4--6678----
-4-3-825143-673-916-586-461-8--56-8-6-33
0-8-+-+6----+-36---5-42---6---6-55478---
------2-3-6-499-62--3-58--8+-67-72-+655-
0---9--6356-87556--75--4-5---+6146+-2---
---50--4-63--6-2-9-27--468-24-48-25--1-4
--4-8-4-9----84-4--4-2-7-64--4--4-4---2-
-65-2--3-73---2-5-5-542---8-4--639-9-756
-42-6-1+-4---96--44-6-356---16--43--4---
1-14-41-2--4-729--1-398-7-33-32--3--45--
---422-4----5+7-7-1----49-7-87--7--6---3
---4-53-3---6-3442-46575-+72+8-4-+66-5--
---36---2--15+5554---48353-496-33---2--6
5249-7-11-44----4--3-+--7--355-----9---5
-0584----66--75--3--54-55-2-96-764---6--
--44-+-5--56-6-65---4--3-++-563---27-+-4
637--896---5847-4-3-3-6--------9344-2---
--6-2--8--4-2-3866----6--558776--9--9--7
----5584-4-9454--6-+56+3----2-7----5745-
3-9-4-55-3-2-6--+4+4-----5--37--4---366-
37+53-6---95-37--43-3-29-84-+-474--44-17
-95--29-5-9-94-5--2+48-852-46+64-7----6-
--8548---4--+-4+294-73---55454-----5-5-+
--523-------1-05-3-----4-257-7-5-7---2--
--------36-+9-37+-19---3-----4--74--41-2
5+--5---44-+-15-5-5-+----8-5-42-------4+
--867+-5------59+5-1-----49-832----8-82-
4-14-----8---5-2-5-59-----4-----3444-6-8
-4675--74----375-----2--476----75--+-6-5
6-58-66554-1-26-3--5594--34-6--5246-1-45
64-----7487--85-5+----55-+-3--3---0--219
97---34-2-+-1-4-7----3-----6-9-4--51--1-
66--4-9--66--3-+3-752-27-55669-436-5---4
---5+6--7--4-99--85-8225-4271----53-4517
-0-65-4-66--792--8-------747---634---45-
7-72--+32--5549-5-84--5----+75--8+-735--
6237-8146648815---4---445-1--6--7-645-75
--77+616------+33--3---67--1-85--9-+----
--738----4--2--8-83--12-----4-3-----66-3

Generation = 40, Population = 631.
2--74-----4--2--8-8+---+-5-----7-----7-4
5--9-477-71+---7-------++57195----++---+
-8436---4447-86++-8-9--7--13---978---9-7
2-9---+-+877-+--9--+--449395+57-89-8-+85
3--94-4784---+++6-5-6-88+-8-6---8-+--5-8
2--++-----9+-9-97-6-7-+-5----------43+6-
-+4-2---37--8+----+----7-+-3-6---3-7-3--
5--4-+5--8-----665-54-4-5-----8---------
--86-4-43858-9---++9-9-9-7+--8-7-------+
4------+-----9--+-6------------3-5-7968-
-2-43---7---+9--5--5-+--99---7----5+7+-+
-4---34---7--+-++-75--6-+-7---9--3------
54-+-99-8-78-5677------7-+---+-----9-8--
-3-6---2----6-6---88-6-----69-4---8--9--
--8-39----7-8--6----8--6---4-74----+--46
-2---885----4-9-+--4--35-3--+---9----84-
---6-----87-------7--7-6-+-4------------
8--+--++---9--9-8-5+---2-7--6--------+--
9---43-+8------996-+--+-7-79-7---+8-----
8---77--7-8+8-8-+----8---95-3-----8988-6
--+-7-9-679--+--+-+5----+-6--9+--+-+-7--
----7----7--7--+9------------88----5---9
---583---4--+--9-+-+-----5-6-++8-----9+7
9--8-+--9--+-+-+3--38-4-8--5-59-651-----
-8-5-8-3-+-----------3---------7-------2
+8----+-6-6+-+---5--------294-7-+5------
--9----+97---38+5-9-+--7-9-+56---4----7-
65+7--8----8-4-+-8+6-+9------93++--+3--9
4--839-6---55-4---+-+---6--8+-6-45-54+--
8-897+-+-----7--9-73957-6+----+--+--4-2-
-+-+-------3-57--6-9---5-------6---9-94-
-53--8---+-7-+7----7-7--5+-7-76-------3+
-----------5-9---7-------7-----8-+------
-----5-++--6----4-7638--5--7-+------7-47
---5---5-5+----5-+5896---73---------7-48
8--8-966++-47-6---93--86-8--+9--6+4-5+6+
-+-69++765-7-4+76---8----6--+6---+9-68-8
64---8--+-4-+--9-8--4---6-1-6-------6-8-
-+-9-----8-3+----+7---8---7--+6--+1+----
4---+4--6-----598----55-9---53679----9--
