*** Life<FredkinCell> 50x50 ***

Generation = 0, Population = 196.
---------0-----0--------0---------0----0----------
-------------------------------------0------0-----
-------------0------0----------00--0---0-----0----
---------------------------0--------------0-------
--0-----------------------0-0-0-0----------0------
----0------0----0------0----0---------------------
-------------------0---------------------0--------
----------------0---------------------------------
-0--------0--0-0----------------------------------
-----0------------------00--------0-------------0-
------0-----------0-0--------------------0---0----
---0----0--------------------0-------------0------
0-------------0-------------------0------0-------0
-----0------------0-0-----------------------------
---------0--------0----0----------0----------0----
----0--0-------------------------0--------------0-
-------------0--------------0----0----------------
-------------------0-----------0------------------
--------------------0-----------------------------
-----------------------00--00---------------------
---------------0----------------------------------
----0--0----------------------------------0--0---0
--0------------0--------------0------------------0
00--0----0-------------------------0----------0---
---0---------------0-0----------------0------0----
-0-----------0-----0---------------------------0--
-----0------0-----0-----------------0-----0-------
----0-----0-------------------------0-------------
------------------------------0-------------------
---------0--------------0-0---00-------0-----0----
---0--------------------0--------0---0---------0--
-----------0-------------------------------------0
--0-----0------------0-------0-----------------0--
----------------------0---------0-----------------
-------------------------------00---------00------
-0------------------------------------------------
-----0-0----00-------0------0---------------------
---0--------------------------0---------0--00--0--
---------0-------------------0---0----------------
----------------------00---0-0---0-0-------0----0-
-00---------------0------------0---------------0--
-0------------0---------0------------0------------
------------------0----------------0------0-------
-0------------0---00---------------0-0------------
----000-00----------------------------------------
----------------------------0------00----0--------
-------------------------------0------------------
---------0-----------------------0----------------
--------------------0-------0---------------------
0---0-0--0------------------------0------0--------

Generation = 10, Population = 1142.
--0---101202--0433--11---0-311---33--3----310--0-0
--2---1100---10---21-112-2-0-2000--20-0---1----1--
---00---1-0----2-3--241-------2-520100-305---2----
-000111-2-111--02023-1-2---30---013-1---01--------
0-2--0--0---1-------310-3----1-14---3--0--0----0-0
51---12------33-2--3432-1-14----------11---2--0-0-
0-2-1--1-01---1431--0--3--2-32--1210121-1--2-1---0
-0-1----320-11-2101---0-1------210-00---1-1-2-0---
----10---21-2-0-0310230-01212-1-----0----0-----1--
0---2--23-----2-6241---62----321--01-2122---1---11
3-1----0--31-3420-2--152--3-31102---------01-1---3
320--1-0-023113--12--22--4----210--2---1----12-2--
-12-2-1---1-1-1----02---2-----00-43-----232301-1-2
-31-12--011--3----3----1-------------2---111--2---
252-10----2-24-2-0--321--2---14----12-1-1-041--2-3
---1001----112--4021---4151------13--21---031100-2
--1---210-0112-2-1204103---10-23--4--1100----0---2
1422---00-0202-1-1-41-23-102---0----00--1--002---3
01--10--1-1--101--314-32-21---------2--11---13-1-2
-----0--2211--05--143213-00--3----2--------0----1-
0-331-20--1-2---1-1-001-10-------22--111--2------4
231-0451-2--0200--22----3-02---23---123-------321-
11-4--1--2-12-0-0----1025-111--1110--0--2-----14--
3-------3---240---0-012-4023-0101-0023--1--3222-35
2--40131-10--0----23--1011---02--3---202-13--0-41-
--1-420-0----1----1301---2----1---1--21--0--2-3002
-----320---1-3--------2-5-00224-0-2-312-222-11----
-5--1--1-413--1--1031-02--00-02---2--23-1--04-11-1
-02-10-3------1-11-11--120--1--1-02-1--011130----2
111-2-2-----1-110----23--2--1-1---33-324-3-2----0-
--62-----4101-1321-3-310---1-17-2-10-----4-1-----5
1---210----1-2--0-143-424--2-3-32-10--1---1--10-10
-31-4-1-20----1--04-20-220-2-2102-00-0-3-----1---1
1--3-1----20--11-00--003---010--10--3401-10--22-32
1-0-1-1113---2100-20--3--10---211-3---23-31------3
--11--0-00---1---1-3113-2-1-1--22104---121-----2-2
-2--11002-1511-----3-1---4-21---10--5-2101-----0-1
----1--1-40--0-1--0-012--1-0-1032-02---4-4--5--3-6
--133-0-------------1-13---54322-3-30--1---4---2-3
0--212-1----2------1-22-0233-77--62------2-4--0--0
421-3------1-----020--30----4-21011------005-3---1
-6-30212-21----1--21-11--11--22-262-13-11---33-2--
----1--0-4--0-3-30-----0011--21-200-1---1---20-1--
---223310---11--1------------3131-4----11--------0
4--344-0--4-3-012-----0---22-1--001----1--1-------
11--2--3--1------10---01---5-21-11--3----41----11-
-1--0-0-25-01-0-013------1-126-1-4-000---0-----2--
370---1-13--2-32-11--2-0---361---24-3-0-201--000--
0-2-----14-2--2-0-5-1-11--1---21--2---00-----0---1
4--3-----------2-32-00-1-0-1-0-3-2--01--1-110--11-

Generation = 20, Population = 1171.
3----54---5-25---5-3-1-21-----1-3-64-434-57---46--
14-35----11-1-20+1+7-5344---9--3--231--26-20-5-63-
4--21----3-44--35-3-7--62--72--8966--43--6-124--55
-5-------3--2--12--52-1320-84-53-4-3--2-----------
-450324-35-12-3-433691-4503-32-5-16-------0-064--0
7-5--77786-2-86-8----6--8----17-4--3----4--82020-0
-------121--1--763202236-4--6-441-1-4----22----20-
32-24-1---1-3------35--9--13-2-4-------2-34--5----
-2---233641----4--4--46--1----247-26-3-5-4-4230-01
-6657--3722-3-5----3-4285-5-5-324---7---4-4011--5-
5---94-1--4-34733----1--56--6-4-6-7-55-4------33-7
482-4-4-2--6--4-2-----------6---4--3164-16---+---4
---4----5-2--141323-811---1341-3--4-155----615----
-6-42-2----1-5-2314462-2-560----3744361-25-23---42
49-6--1334--2-7---7066----1-136-2-5-66---0-4-3---5
-6-53---6-641-257----1------6---7------0-4-533----
-27-15434--2--5--744------0-4----3-0--321------107
--53------4-----0-6834--3-2--4----19-4-4-44--5-856
2-24-3-356--1-2342-3----45------24---4271--3-----6
-6-46---4---16073--8--44-3-3-32783-----42---4-11-4
1----22--37-34--1011-4--11433250----12-2----0-12-5
8--5-56-1--534--33--7-----6---1--3-33-6-4-----5--6
----315-236---530-+-4183-3635--9-21431---4-5-6--3-
-6-33-33---247-2134-----+15--6---3-4---34----5----
-46-2-7615-703---385-320-6-8--4-1-0----5--84--5---
-4-58---1-24-34815-----4--15-3-9---49-30-0-4-47-4-
--3--4--2-73150------06556---8--2-66--622---4-531-
5+-4--0-76--8573-1262-1------1-6------4--5-26--563
2326-28-51-2---2---23-2-3----13--4-3--44--4--15---
6--6-45--252429--252-45----2---4-1--57-+7-7-254---
----4121-9--3-1956-97-15-2--3-8--6731-3---225-----
-4---103-446--1--118----5-541-----62---4-4-43-----
1---+-53-34-2-40-----5264--56-----01--------1-2---
3-0--1-1-13712----43----90---044-21-9-34--2--3-385
--4--2--63--54-85-2-245-73--------6---4-4--442234-
-2-4423-4417-5------26-14--5--33-6-7-5-3---3--4-4-
2-6-4-1--------1---664-----3-----35--44-26-----12-
2--554-7-715-44-44-315--7--2531-463-54---82-7-33-9
622--30----354-224--4-----1--3------3----------60-
5-0-3-131--3--5--2-6---23--9--+60-4--3-4---8------
-37-64--3--3--2-4-66-4--3--1-1-3-345-04---291--0--
--1-2--6--33-1---12-67-1----1264-84459--1-2-4-0---
3331-33-4----0-034----2317---54-5----3-54-----35--
8-33--6-6-5---52--5933-4--24---4-65------3-18-2--8
9-334-31--6--4-33--11-2-35-3---2---4222----114---1
13------4-3--1-20204--1-45--3---3854---4-4---2-222
--1----1---422------3----23-6-----131----23------1
4+0248--75-----5345222--2-4--41-3--6-3-46---3---1-
---3---5362442---16-204-----7271-2--4------23---11
---30-7---256---7844---4--2231-7-2-31---3--6-2---2

*** Life<FredkinCell> 75x75 ***

Generation = 0, Population = 193.
----------0---------------------------0---------------------------------0--
0--------------------------------------------------------------------------
--------0---0----0------------------------0--------------------------------
-----------------0----0----------0-0----------------------------------0----
----------------0------0-------------------------------0-------------------
------------------------------0---0--------------------0-------------------
--0--------------------------0------0----0-------0-------------------------
------------0-0--------------------------0---------------------------------
-------------0-----------0-------------------------------------------------
-------------------------------------0---------------------------------0---
-----------------------------------------0---------------------00----------
----------------------------------------------0----------------------------
0----0------------------------------------0--------------------------------
------------------------------------------------0--------------------------
--0------------------------------------------------------------------------
------0---------------0-------------0--------0-----------------------------
0------------------00----0--------------------------0----------------------
----0--------------------------------------------0------0-0-------0--------
---------------------------0-------------------------------0---------------
---------------------------------------------------------------------------
-------------------------------------------0-------0-----------------0-----
---------------------------------------------------------------------------
---------------0--0----------------------------0---------------------------
---------------------------------------0---------0-------------------------
0----------------------------0------------------------0--------------------
--------------0---------------0--------------------------------0-----------
------------------0--------------------------------------------------------
--------------------------------------------------------------------0------
-------------------------00------0-0-----------------------------------0---
---0-----------------0-----------------------0-----------0-----------------
----------------------0-------------------------0------------------0-------
------0-----------------------------------0--------------------------------
-------------------------------0-----------------------0----------------0--
------------------------------------0--------0-----------------------------
-------------0-----------0-------------------------------------------------
------0------------------------0-------------------------------------------
------------------------------------0-----0--------------------------------
-----------------------00----------------0---------------------------------
---------------------0-----------------------------------------------------
--------------------------------0--------0------------------------0---0----
0-----------------------0--------------------------------------------------
---------------0--------00----------------------------------------------0--
--00---------------------------------------------------------0-------------
------------------------0---------0--0-------------------------------------
----------------------------------------------------------------0--0-------
--0-----------------------------------------------------------0------------
-------------0------------0--------------------------------------------0---
---------------------------------------------------------------------------
----------------------------------------0---------------0------------------
-----------------------------------------------------0--------------0------
---------------------------------------------------------------------------
-------------------0-----------------------0-------------------------------
---------------------------------------0-----------------------------0-----
--------------------0--0------------0--------------0-----------------------
------0-------------------------------0--0-----------0---------------------
----0--------------------------------0----------0--------------------0-----
---------0-----------00----------------------------------------------------
-0------------------------------------------0-------------------------00---
-0---------------------------------------------------------0---------------
------------0--------------------------------------------------------------
---------------------------------------------------------------------------
------------------0----------------0-------------0-------------------------
0-----------0---------0------------------------------------------------0---
---------------------------------------------------------------------------
--------------------0------------------------------------------------------
-------------------------------------------0-------------------------------
--0------------------------------------------------------------------------
----------------0-------------0-----------------0-0------------------0--0--
-----0-----------------------------0---------------------------------------
----0----------------------------------------------------------0-----------
-------0----0-------------------------------------------------------0----0-
------------0-------------------------------0-------------------0----0-----
-----------0------------------------------00---------------------------0--0
--00-----------------0-----------------------0-----------------------------
--------------0----------0-------------------------------------------------

Generation = 10, Population = 1904.
0---0----0-0-2-03-3---------14110---1-00---00-011010---3------01--1-0-1-0--
----4-3-100---2--2----0----01-2--1--2--1-2-0--1------1---1----0------01-10-
-----120---102-3-3---2010--1-1010------2-4-1--1221--00---0---002310---1----
0-----001--15--31--12-0-212-24131311--10-50211-0-------4----0--12---1-113-1
---0---0-10--212-3-11001-11-00----0--12-----00----0----1-2---1-410------3--
7-1-1----0----2--3----0----11-0----2-----4-11-----0----------01--0----1-1--
2-2-4-0---2-2--1----10-0001---1--2--0-2-5-23--0----00--2---2---2------0-2-0
--1-3-1-----------2-------0--0-0--22------01-1-113-0----0-0-------0----2---
3--11--0-------1--1---1-----0--1---0111-001-0-----0---0211-0----------00--0
2---1-1----------1--1-0----1---1---00-1----1-1---3-0----3-0-00--12--001--0-
11---1--0-0--10022--11-0-----1-1-333--1-0--20--0--1-1005--1--3--------0-210
0---0----------0---02---0----000-21131-------2---2--0--12-1----0--0-0--01--
--31--1----01-1--1---2---0-0-0--00--------1--0-012--2--200-0-------0----0--
0-----------0-0--0----1-------0--1-231-1-00-0----3-------10-----------0----
-23-4-0-1--1-0------1--1-1--00-0-0----02----10-0-31---01----0--------1-----
2---------1-----2---------0-2-0-0-00----1-13--141-1-----201----00-1----0--0
6-----1-1112-423-------3-31---1-----0-----1---12-1-00---0-2---011--0-------
----0-----0-----0-------------0-0--1-1-0-4-21---200-21-02--1101-100--0--110
-----00-0--010--0---20----0000---0---1-2--2-0----1-2-20----00-1---0--0-1-0-
--00--------0-1------0--------0------1---2--03--1-0-------0----21-----01--0
1--1------0-------14--0-1-310--0-------20---11--10-1-0-2-2-0-1--0----0-0-0-
-0---1-------------0--11-------0----1----012-1----0----1-0-1--------0------
0---2-1--1--1------4-----13-0--1-0-------212------1212-0-0-0-10--1---0-000-
---12-1-------------11--0----0---02-1--11---11-40-------2231------0----0---
0---2-401-0--0---014-2-0-1---0---1-1--------0-----1--213-1-11---0--0--0---0
--0-1---1-------------0-----------0---1-0000-0-2---0-11-3-1-----1---21---00
0-----0----11--2-21002-013--11-1-00-11---00---2----10--1-0---000-----0-21--
---1--1-1--0-1---------00--------1--220--1---0-------1-00-----0--01----11-2
----------0--22-1-2221-3--2--3021-301-02---11--0-1---2--2----0---2-1-2-3-0-
00---11--1-1-003-----11--201----0-10---0-3-1---1-01----3----0--3--10--0---0
------------00----011---41-001--111-2-00-1---0-1-0-2-----11--1--0----113---
2-12-------001200------2-0--01--3-0-00-3---01--022-10----------311---------
--00-0--------01-1---01--113--02-0---1--21---0-1-3--2------0--1--12-2---2--
------------01--11----2-2--20-2----0-0-1-10---1--002---1-----1---01-2-----0
21-301-0-------21---1---010-11-2-00----1----1--0--1---0----1-------0--01---
1--3--------0-1-------1-4-1-2-00-2-14--0-1--21---0---0---1----00--0---0-0--
--12-0-----------00--2011--001131--221----2---0-----0--------01--110---1-0-
-1--100------2---112---------226---1-1-10-10-----0-0---0--100-0-1---0---1-0
------1-0-------1---2----101----2000----1---0-0--------00-------10-0---120-
--102--11------0-0---024--1--------02-1-3-1-0--0-0-0-0--11----2-----0---4--
---1--2-0--0-00---0---0--01---2--11---0---1-----0-----1--11--------0-011--1
-----0---1----011-3--0--341--10-22-1--0-1----0-0-0-0---1--0---------1-0---0
-12--3---1-502-10------2---0---10---1--01-1--------0-------1-------0-2-0---
-------10-1---0-1-2-21-0---110046-2-----1--20--0---0-10---------1---0------
---1102---10-1----0------0-----------1--1---0---------1--21--1-1---2-31---0
--1-2---0---0---0-11---------0-0--2--211-20--0--00--10--2---------1-302-1--
0--12--100------0---200-2-----------1---2-10-------1---01--0-0--31------10-
-02-1-2---0----1----1----1----0---111----2-0000---00--0-----00--3--1------0
00-1-010---0------001-202-1---0-------0--1-----------2-----0-201--3----1---
---10------000---0----213-1-----1-00-----001--102--1------01--10--1-0----0-
-1-320---1-----------10-0------00--------------0---------0-0---0---1-----0-
-21------01-330---0---0-1-1--0-101--12-2---0-0-------3-----1000-------100-0
-120--------010-------2---1--01---------------1---------------01-11--0-0---
2-0-1-----01-01-12--0---1--0------21----211---22--------01--1---1--------1-
-1--------1132-001-----------01-3--1----2--21--11--2----2--1-2-00--0-----2-
1-4-02---00-2-00--1--------1-------12-0---224--0-3--110---0---------0---1--
--01-4---1-0-33-3-23------112-2100----1---0--20--1-0--0---0--1-----1-------
--104------02---0--13--------11---2---0-11-2----2--1--101---0---101-----6-2
33-202-----0-21--1--1--------01----0---01--------0---1--0--------0---------
--2-110--11---0--1--5100--000---0------------01-3-00-1---0----0----11-3-0-0
--0022--00--3-0-----4---------1--0----1------------1-2---------1----1----0-
--0---0-3-------2-01513-2---113---0--111-2--13---02--1-1---0-0--10---2--0--
--2--------1--3-2-1--2----------0--11---1-1--------1---0-----0---00---1--11
-2-15-0-------1-----11-0--00--------1--0-11101----2------0----00--0---00---
-2------11-2111----0---1000-----------0-0---11-------0-----0---0----00-21-1
11-2-0--0----------0--000--------0----0-0--03-2100---0--0-0--0------213-2--
-200--2-31-1110-0----110-0--0-------------2--------------0---1---------2--1
-00---0-----0-0---0-2-3-0-0---------1-1---0------0-0--010-101-11--0-0-532--
11-2------0---4-0---1-10---0-0-----------012-3-------------00----0---0-----
-3--10--3-1---1-0--2--010--------0--100-0-131------000---00-----------1-30-
11-1--01-14-43---011--1-01-0------01----01-601----00------0---1---3------2-
--1---0----0210------11------0----10-12---31-21--11--1-1--12--3---22--11--2
002-011--1103-32--2-120---------0--311----23----12--01------01--1---1--2-3-
-2--52--02-3-0-2----1------0---0---01--1-1--20-----21--00-------10---1--23-
0-0--23-1---1--0-0----0-0------0--00-1------------00-----------1--1----0-2-

Generation = 20, Population = 1856.
-2--43-02------44-6--033---0143-33-------613----1-320---2-120--21-2--0-0---
3---+---5-3-5---2---0----------------5-2----213-271--20-3-3-0-----1---2----
--7--62--50-3--6---65--2232-830452---21------223-------613-----3-4---------
02---1----3-6064-----4-0-3--283---5--3-1-6---1-3-1---1-5-14-2-------2------
-201-----1-4-------24-0--23-20-------3-4-----0---2--3--23--62-1--3--0----0-
----2-----3---7-2-3--23----------526-----532--2-221--41-1-1-------4--------
425--14-5--1----2-10---3-32220---5---2---835---2-5-3-2-53415---------022---
105-5---2-4-----5-33-01-3-5--13-6-5--35----2--6--8-5--3------00-2---0-2----
-25-3-3042--226-21---1-------------2----1111-2----14-2---------34----2-----
6--0------1---2--2---2---3----1-3----212-----31--51-------------2----------
----------0-3-26--51-3-----0-2---4----4----333-22----2---4-5-4---23-----5-5
4-0-----2---325---4-422--2--2-33--5--52--35------3--3----13--1--0-------2-2
4563-0--2-----5--32-1----0---3-----401-1-3----1--3-----2------0----11------
2-5-5--0--1---3--5--44---0--1----52-----031--5---41---------31---0------2-1
------1----321---2----22--2-------0---------2--21---3--7-1-----4----3-2---3
----1-3-----1---3-2-----516---21-14---3---1---2-4-------42----1--0--3------
9----824-75--9---43-24-4-5-----6-14121-2--4--2-----1-1-1--8-----50-1---22--
6-211-3-------2-2----1-1-----23---4-031-3---22---1----62-5---1------623---1
----1--2121--6-2134--02-----------0-4----7----1-33-------------3---2----2--
--1-----4-2-402---2-3220--00---111-3-334--3---------2--3-----1---1----1---0
2--23----30-3------65--133-5---31--3--3524---31--3-1-----5-2-3------0021---
----------1---23---3----25400----03-2-0-0-3---02--31-------2-----1--0-----0
---0----1--215-----------6----3-214--11-155----------3-----0-2-23--3-------
------1-0-1-----2241--2-0--212-5-2361---------2----51------3-13------0----2
3-0-30---2--5---3227-7-0---225----332--------------3-5-----1---1310-------4
----21----3-------1-14-43-3-3-3--2---2---333----4-23---6-----01-----4----21
--2---43-----3-------3----7--72-3-2-52---4---3---3-2-----2-40--345--2--3---
------3-2---0-5-----1--2--1-1-4-0---6-1--21--2--1-1----01-0---4--23--------
-13-244--1------1--743-42------------3423----1-----423-2----1-26---42-3----
-2--4-43-2----36----1--57----05----------6--0131-1---1--01---6---4--13--33-
3235--3---2------2----4----1311-----7-----1----3-------4---621--4--33--6---
--5-4---2-2-2--3---3----6-----3-5-4--2--13-3--32-4--1-1-------1---5--------
3-2-01---102---205--34-50-4--1-----14--3-2-11---24-34--11------66-4--------
1-1--0-1---2----4--33--54----4---0--03-451---2---2-4042-32--120-22----2-01-
-52--3---------8--4----2-31----530-------3---3-4---2-1-2-------01--1---3---
------0-3--21--10-10---4-3----------44-----6-3-0-101--0--33-----3---11-----
--------23----14---236--42---42----3-------3---41---4--34--------------1---
-2-1----51-14-2-3--855--4--4--466--17----3-5---4-1--0--1--4---12--1-3-30---
-25-------0-3-3-------7----4-0---11--2----21-----1-1-----1---------------2-
2-------2------1--112-4------2---3-1----52---111-----13---1-30--20------71-
--2--0----4--4---1-------35--------24--2---00---0-2-3--------------3--24---
-3-06--31-5--4----5-23-4-732------3--1-1----2-0-03-51-----315-----------4-4
3-----215-4-0--52-1----3-----2-------13---1----202---3-------------0-3-0-1-
------4-1---3-0--0----2-------------41-0--2-2-1---1-----------------22--1--
3-------02----2-1---2---7----33------4-1----2--0----1-2-0------4--35---5--1
-3-----0-1----2-14-------5----2-----35-30-104----24-2---3----102--1-9152--2
----563-3--1312-1--1-------------2----3-----114----21------1---1-------3-1-
--40--5-3-1-3---0-1--0-----2--12---1--1-3-----4-2----2-----2--------21--0--
-----2----------2---1--266611----0-1------3-2---2---04-5---21----2-3--14---
---2---0----2-------21-26-------30--8---22---1235---0---11----11-2-4--3-52-
-3----12223------0-------1-----------1----4-----1-----03-1-----2---211-2-3-
--1---53-------------3-3--51------26---2-32---4-----0-13-------3--1-217--21
01----1--2-2-------23----1-4----4----1-0--04--3--1-1---325-2-1-------3-4--0
--1--------2-1-512-623---5-1---40--33--55----1--3---2-541--31---3-32-4-31--
----3---3--37-4-3----4---2---4---2-------1-4------2--4----1-----15---2--0--
--70----6-----0-02-------2-41-11--22----2----5----3--------0-32--42---3-402
----15-4--4---70----53-6-4--51---3216-23-0----13-----0-2--------20----0-0--
1-42--0--4-2-5-------4-1-6--51--22223--2-----1---40-4---4-3-4-4451--------3
7-5-----32114-3-352--3---33-11-------123--31---3------11-------3-3--23---24
4-----3---3----------2--2---3-2-21----3-------------------------512---3----
1---6-21--354-----1--4--00---4------012-3-00------------2---1--5---------31
0-433-21-----0-------3-02--2333------52--4---5-2-2---41---1104--3-1-54--2--
3--1-324-7---394----1-1-21----2-2-04--21--61--12---4---------1-----4--2-4--
5-4-----5-----2----3----1---3-1------2--1--3--3---3--3--3---3-4-4-3-22--12-
3-22-----4-4--3-5--2-3---0------0---3--12---2------10-------1------2----23-
4-25----0-2--------4-3---------1-14-2------2-4-2-1-----2-4-0--2211-1---24--
-6-----144-6-1------0-51--1----0-------4-460--------02-2-1---2-0--1-------3
----------2----0--0-4--1--1---3---1--323--1---06-24--14--46-345-4-5--3---03
---22134-2---5-0-1---5-2-10--------11---3--3---1--------2--21--2-2--2--2---
-4--422----44-4--------------4--1--2-1-11--74----2-3-2-1---1-2-1---00-63---
-144-63--4554---3-45-------0--3-0-15-1---34--2--22---1--0--3-32--3----2----
5-----1-5-----2-0--0----------2--01------1-2--3-022--4---3---27---------535
35--26-21----2--14-4-31--5-------------4-4-------------11--6---53----2-----
-5-----602680---1--1-----2---3-1---223-331-133-410-4-1---2---4---301--2---1
53-24-66-3--62------26-1----1-----4--33--0---2------23---0-214----3----4---

*** Life<FredkinCell> 100x100 ***

Generation = 0, Population = 200.
--------------------------0---------------------------------------------------0-------------0-------
------------------------------------------------------------------------------------------0---------
----------------0-------------0--------------------0-----------------------------0------------------
-0--------------------------------------------------------------------------------------------------
0-------0-----0-------------------------------00------------0-------0-------------------------------
-------------------------------0---------------------------------------------------0----------------
-----------------------0-----------------0-------------0----------------------0---------------------
--------------------------------------------------------------------0-0-----0---------------0------0
--0------0-------------------0----------------------------------------------------------------------
----------------0-----------------------------------------------------------------------------------
------------------------------------------------0---------------------------------------------------
----------------------------------------------------------------------------------------------------
------------------------------------------------------------------------0----0-------------------0--
----------------------------------------------------------------0-----------------------------------
----------0--------------------------------------------------------------------------0--------------
-----------0--------------0----------------0-----0------------------------0----0----------------0---
----------------------------------------------------------------------------------------------------
------------------------------------------------------------0---------------------------------------
-----------------0-------------------------0---------------------------------------------------0----
---------------0------------------------------------------------------------------------------------
-------------------------0-----------0----0---------------------------------------------------------
----------------------------------------------------------------------------------------------------
------------------------------0-------------------------------------------------------------0-------
----------------0----------------------------------------------------------------------0------------
---------0------------------------------------------------0-----------------------------------------
-----------------------------------------------------------------------0----------------------0-----
-----------------------------------0-------------------------------------------0--------------------
-------------------------------------------------------------------------------------0--------------
--------------------------------0-------------------------------------------------------------------
------------0---------------------------0------------------------------------0----------------------
0----0-----------------------------------------------------------------------------------------0----
-------------------------------------------------------------------------------------------------0--
---0----------------------------------------0------------------------------------------0------------
-----------0----------------------------------------------------------------------------------------
-------------------------------------------------------------------------------0--------------------
--------------------------------------------------------------------------------0---------------0---
----------------------------------------------------------------------------------------------------
--------------------0---------------------------------------------0---------------------------------
----------------0----------------0--------0-------0-----------------------0------------0------------
----------------------0-----------------------------------------------------------------------------
--------------------------------------0----------------0--------------0-----------------------------
-------------------------------------------------------------------------------------0--------------
---------------------------------------------------------0------------------------------------------
---------0----------------------------------------------------------------------------------0-------
----------------------------------------------------------0-----------------------------------------
----------------------------------------------------------------------------------------------------
----------------------------------------------------------------------------------------------------
----------------------------------------------------------------------------------------------------
----------------------------------0-----------------------------------------------------------------
-----0---------------------------------------------------------------------------0------------------
-------------00-------------------------------------------------------------------------------------
---------------------------------------------------------------------------------------0------------
---------------------------0------------------------------------------------------------------------
------------------------------------------0---------------------------------------------------------
0---------------0------------------------------0-------------------------------0--------------------
---------------0----------------------0-------------------------------------------------------------
----------------0-----------------------------------------------------------------------------------
-------0------------0--0------------------------------0--------0----------------0------------0------
------0---------------------------------------------------------0-----------------------------------
----------------------0-----------------------------------------------------------------------------
---------------------------------0-------------0----------------0-----------------------------------
----------------------0--------0-----------------------0--------------------------0--0--------------
----------------------------0--------------------------------------------------0----------------0---
-----------------------0--------------------0---------------------------0---------------------------
----0-----------------------------------------------------------------0--------------0--------------
--------------------------------0------------0------------------------------------------------------
----------------------------------------------------------------------------------------------------
--------------------------------------------------------------0----------0-0------------------------
--------------------------------------------0--------------------------------------------0----------
-------------------------------------------------------------------------0--------------------------
------0------------------------0--------------------------------------------------------------------
----------------------------------------------------------------------------------------------------
---------------------------------------------------------------0-----------------------0------------
---------------------0------------------------------------------------------------------------------
----------------------0-------0-------------------0-------------------------------------------------
------------------0------0------0------------------------------------0-------------------00---------
--0-------0--------------------------------------------------------------------------------------0--
--------------------------------------------------------------------0-------------------------------
-----------------------------0----------------------------------------------------------------------
----------------------------------------------------------------------------------------------------
----------------------------------------------------------------------------0-----------------------
-------------------0---------------------------------------0---------------------------0------------
---------------------------0----------------------0-------------------------0-----0-----------------
----------------------------------------------------------------------------------------------------
-----0------------------------0------------0--------------------------------------------------------
-------------------------------------------------------------------------------------------0--------
-------------------------0-0------------------0-----------------------------------------------------
------------0---------------------------------------------0------------0----------------------------
-------------------0--------0-----------------------------0-----------------------------------------
-------------0--------------------------------------0-----------------------------------------------
--------------------------------0------------------------------------0-------------0--------0-------
----------------------------------------------------------------------------------------------------
-----------------------------------------------------------------------------0----------------------
-------------0--------------------------------------------------------------------------------------
-----------------------------------0----------------------------------------------------------------
----------------------------------------------------------------------------------------------------
----------------------0-----------------------------------------------------------------------------
---------------------------------------------------------0------------------------------------------
----------------------------------------------------------------------------------------------------
-------------------0-------------------------------------------------------------0----0-------------

Generation = 10, Population = 2363.
--0-0--0-0-0--0-1-0-002120-0-1-10-0-0-00-0----311----0-0-0-00---------2-00--0-0-2-4-----10----------
-0---0---1----1---1----------2---0----------------------------------------------02--10----------1---
--------12--0---2-0-0--01-1--10---0-0-110---1-4-22100-0--01-210---0-1--02--1012--0--0-00---0-----0--
-----------0----1------0-------1-------1------------------------0----------0------02------00------0-
--0---0-------10----0-1---0-1--100--023-10-2--1-2-2-5-4-20121-00--0-0-2--1-0-------0-10--0--3--0---0
-0---1---0-0---------0---01----------2---0-0-----1----------1-----0-4----02-2210--------02-20---0---
00--0-----2-01-------00-0-3-1120-0-2-001-----1-1-2--0-00----31---0-----------24-01-12--10-1-0-0--1--
--------00---0---------0----0----------0-0---0-1---0------0---2---1---1-2-10-06-20-------0---224--1-
--11--4-3-0-0---10-----01-3-0-12-0-1---00--1---2-2-0----0------0------0-----1-4-00---10---1-1-01----
-1----0---31---0------0--------------------2-----1--------0-1-------1-----0-0-10--------0--110--0---
01--0---1-1----0-210-0---00-0---0-----0--1---001-0---22---0-1---0---00--------101--2-0---0--00-1-0--
---0----1----0---1------0------1------------------------1---1-----------0----------0------0---------
0-----1---2-0----00--------0-------0---0-2-2-1--10-0---01-0--------1--31-----0---201-------00--0-1--
-0-0-----------00-10---------0---000-----1---------0--0--10-------1-4--1--1-1----01--1--0---1---0--1
--0-0---1-----0-1---00------01--0----1-0--31--10-----0---10-0---0---30-----01--2-----0---001--1-----
-0---0--------0--00-10---------001--12-0---2-----0--10-22--0----0-0-1033-00---2-1--20-0-------0--111
0-0-0----0--------1----0-0-0--30---------1------1--1---00---0----------------101-------0----20---0--
---0---0------0-0--1---0----------00-----0--------00--1--0----------01-1-0--0-----0--0--0----------0
--0----1---2-----0-----1---0----110----------12--3---0----1-------------1--------0---1---0-----0-0-0
-----0---1--0---1----0---1--------------0-----------0-----------0---0--1-----1-----0---1------0-----
0----0---02----0---2--0--0-1--2-2-310-1----2---1---10-----------------0---00--------01-0---------1-0
-------00-11--0--------00-2-----------1---01-----0------------1---0-------10---2-----2---------101--
010----01---1-------0---2----1--001-1---1---01--------------------0-----0----2----01--1------0------
------0--10121--------1-1-1-0-----------10---0-0---0--------1--00-------0---01-0------0------021-2-0
11-0------0----2-2-0--0----1----------0---0---0-0---0-----------0---0--0-------2----0--1-0----------
--------00-1-0-1--------0-0----------------0-----0--------0--11--0--------0-----11--0---1----0-102--
-0-0-----------1-0-0----0----1-------0--0-0-1-----0---------------0--0---0---3---1---0-1-0---3---2--
----0------0-0---1--------------0---------------0-----------0--0--0--0-----2--1---0--00----0--11----
-0----0-0----0--00----01--1---0--0-3--120---1-----0--------------------0--0----1-------2----0--1-0--
--0---2--------01-----0-------1---1-----------1---1-------------0--11--0-----0--1--0-----0---1-00---
----1-2-020---11--0-----00--0--11--0010---1-2---1------0--0-----------0-0---0--0----------0---0----3
---10---------0---000---0-------0---------------0-----------------0--0-0-------------1-0-0-0-11--2--
-----00111-1----2-------------0--2020-2-2-0----------11-1---0-------0--00-1--0-1-1-----2----02------
-0---1---2------01---00----------------------------------------------0--10---------0-0---0-----0----
---1-----1-0--------------------20--101-------------0------0---------02--2---1-1-0---0---0-----0----
---0---0---1-------0--------0-----------1-----------------1-----------10-----1-----0-1-1--0---1---0-
1----0--0---------------00----0----0-----00-------0-----012-0-----0----0----------0----1------------
---------0----0-----------0-----------0---1-------------0---0--------------12--1-----1------0---11--
0-0---11--0-----------01--10--1---2-2--11--1--000---1---1-3-0-000---1--------32-21--0--1------------
-----1-----00---0---------------0-------0-----------------1---------------0------2-----------0-0---0
00------0----01---------00--0-----2-1----0--002-1-2-------1-11--2-2---------0---0-0--0---0----------
-0-1---0-0---11--0------------1--------------------------------------------0----3--10--3---0---000--
---0-------11--10----------0--0---0---------0-0---10----------2---30---------11--1-----2------------
---0-0-----0---0---00---------------------0-----------------------2----------00--1---12--1---00---0-
0------------11----------0---0---2--------1----0010-0-----------01--0-----0------------1------------
-0-------------0-00-------------------0-0---0-------------------0---0-----------0---0--1--------0---
0-0-------------1---------00---0---0--1-0-3-00--110-0--0----------1---0-0---00---0---0---0----------
-0-----0---------0--0--10-----------0---0-0-----------0--------0--0------0------0----0---1---0------
0----0--------2---1--01-0---2----0--0-----1-0--0--0--0----------0---0---0-0----1-------0------------
---0-1-----1------0--00--0------------3-------------0---0----0---0-----0---0--03--00--------2-------
---0---2--------3---0--10-0------0-0--1---0----0----------10--0-0-0---0-----------------------------
-0---------0-1--------330------0--0---------------0---00-------0---------0---1--100------00---1--0--
-----00----------1----0-0---0--1-3-1-0-0-----0---0-----101--0-0-0-0----0-------2-------0--------0---
-------0-1----------1-0-1----01-10--1-------0-0-0---00---0--------------0------21--11--1----0--0----
-------------------0--2-1-----1--120-0---0-----0-----0---00-----0----01--0---0---2-------0----0---0-
---------0--0---------1-----------1-------0-00--0-0-----------0-------100-0------11-----0----------0
0-0---0---0--2--------1-0-0-3---1---0--0---------------10-----------0--0-------0---1------------0---
---0------0---------------0--1---22--------0--210----1---0--1-1-0----00-0-00---0------3---0------0-0
0-0-0---0--0---0--------00-1------0----0-0--0---------001-2-------------3-0----------3---0----------
-----0--------1-0------2------02-------1--0--210-------3----0-110-------1-01-----0------110--0-----0
------0------0--1---0--1-0-1-0-2----00-2-001--02-----11-311-----------113-1----0--------1--0----0---
------------0-0-3----2---1--2-002---112-10--20---0--2--------02-10-----102-31--13------23--11--0----
0---0---0---0-1-2-----2--0-0-1---20---11-0--00---0-----00-----21-----0--12----1--0---213--1--10---0-
-------0------0-----13--2----01--00-4001--0----1--0--1--------1---2------11--31-2-1-------0---------
----0-----0-----0-0-1-0-------01----1----------1--0---------01---0-----0---02---0----0-110-0---00---
-----0---0---------2-233--0----20--01--1--0--------0--310----0--0--0-10-------1-2102-----000---0----
----0---0-0-0---0---1---1---1---10--0----------00--------------10-2----------20--1-----1-----2------
-------0--------0---015----0--12--0--0--0-----------11121------------2-42------31-11---01--100------
----0-0-0---0-0-------10----0001--11--00-----0---0----1-------0-0-0----------------1------------1---
------------------1-0-1001---1--21----------1--------01--0-----0-02--1--0------110-11--0-11---------
0---0-----0-0---0----0---201--21-1--00---0-----0----0--1--------0-----00----00-0-----1--------01--0-
-------------0-----0-11--1---1-01---------0--10--------1---0-----0--1-1---0------00--1-1------------
0-0---0---------------11---0012-------00--0-------0--0---00---------02--000-0110-000---2-----1--10--
----------00---1-----1-10-02--01-10-----0--01--0---------0----0---------00-0-0---01--1---2-------00-
--0--0----1-0---1-1-2---10--141-5---2------1----0---0--00---0---------00--0-0-000---00--------------
--------0---10-0------3-0-0-10-21--0--1---1--0-----------------22------1----10--1--12--0---3---22--1
0-002--00---1-1-1---002--0--0-210----00--0---1----0-------0-----------------1-----1----------1---1--
----------1-0----1------0-0------0------0--------------------1-----------32--10--00------1---1---00-
--0--1--0-0-------0------3-03-3--0-0---0---0----0---------1----1----0---------------0--1-------0----
----------01-10------2-----3-----------------------00---0----------1-1------0--0-----------2---0----
------0----------0-1--1--000---12--0-0----0---0---0-----0-3-00---00-111---0-------01011--00-0-------
---------0-102-0--10---1-----0--2----------------00--10---0------1-----1-----0---0-------12--0---0--
-11-------0--1---0-2110-0-----3-3221-00-0---0---0--02---1-3-0--0--003-200---00---01-21000-3-0-0--0--
-----------0----0---00-2------1---0----------------11---------------1--0-------0---2---01--11--0---0
1--10---0--21--0-1--0-0-1----00-1--1221-0-1------01--00---2---------12----00---0---10-----1-0--0---1
----0------0---0--0-0----0------0-----------------0------------0-----10--------0-0---0---00------1-0
-00-------00-1-1-0-101----------------1-1---------100---0---------1---------12-------------------0--
--0--10------2----01-11---------------------0---0---0----0-110--11-----------2---0-0---0-----------0
---------0---1---2002-3--1-3-----01-----0-------0-3-0-2------0--0---0-----02310---1-0------0--------
---01--0---------1--10-0------------------0---2---0----0-022-020--1------------0-0---01--1----------
-----1-----0--------0----113-20-----1-1---01----2-1-0------1---1--0--0---11412100-0-123--1---0------
-----------------0---0----------------------0------------1-01------------------0-0-01-110--1--------
---0---0----------------10-11---1-------00-0-00---0----------0-----0---2---000----001--1---1--------
---0---0----1----0---1-0---------------------------------00------------0-------0-1-00-0-00---0------
-----1--------0----2--00---01------------0-011--0---------2----------0---------------0--------------
-----0----0--11----2-0---------------------------0--1--01--10----0---0---0-------0----0----0--------
------------1---00--11--000-0-1----0-------0--0---------0---0--------0-------------0--------0-------
------------10-0-----------0-------------------0--11--0--01----0---0---0-0----0----------0----0-----
--------------0----0--0-----0----11--0--------------------0--------0---0---------0---0----0---1-----
---------0---0-0---------0-0-0-------------------0--0------------0-----0-0-00-0-0------0-0-01-0-0---

Generation = 20, Population = 2347.
------2---------23------33-----31--0-13---223---4---1-----1---00-220--------23--78--3---533----31-0-
---------------21------------------------------0--------0----------11-2---1---4-----------2---4---00
----1--1-42--0----4--1---3--2334----0----------5--1------1---1-0----23---1-------1---4-----3-------1
---------4-0-2--53-3-0------------------------------1-1-----2-------6-4------------21120----1------0
----11---6---0-------2-4-7-222---3-1--7-4-5-441-----7--34--4--6---24----3---3-2------3--0---+-0-----
0----------30------20----------00----------4-------1--------2--11---------4--------5-----------2-0--
3--1-14-3--3-1---3---0---44--3---11--------2---5-----2----3-42--223-3---3--3-3-3--------1-5----32-1-
-1----------21-3-0--1---------------------------0-0-------4-------4-----5-3----65454-1-5-201---412--
23---38-6----4--63-2-20-30-1-0443--------12-01--04--3-3-3--2-1-2----------1-6-----2-1--05----0------
--3-1-------1--12----------11------10---0------01--------------------------0-3-22------2----------11
3---14-1-55-1-----2------1--2331----2--2--51------01----31--5-2-----23-02--0--6----4----------01---3
-4-0-0----1-----1----------------2--------0---------0-1---234--1-0--2-3---------01-22205012-2--2-3-5
---2-2---2---2----0-0--1-2--1-----2-1----4--22-6----1----12-5----0-----------------13--2-3-2-----3--
0-------2--1----4--------------10---0-------1-------0------------------4-1-------1-12-2---1---------
--1-1----1----4-4----------2--2-11-2----------41---2-------20---20--5----41----4-31-----44-2---510-5
------00------3--------------0-2-----40-------1-------03---2-112---4-3------6---5----31----0431-2---
0------033----3-0----00---1-----1-------04----242--4-0--1-2-00------2-----1-------02---2---1-2--1---
-------1----1--1----1----------4----------------------------------1-----0----2-----3--1---2---1-----
13--1-------4-1-3---0-----1--6-3-42--0---53---44--2----0-------1-----1----1-13---------3-----4-3---3
03-0-1----1-----------2----2----21-3------1---------------01---1-1--2-44--------1---3---2-1----3---1
---2-----26-20---40---1---3--22------05----351---143--0110----0-------4-1-0---2--------2----2-------
-----------4------------2--3-------2--------2----------1------2-------2-----4-13-----7--------------
-3--------0-3---2-3-2--------32--2----3---4--4--2-32--1--2-----0------2-5-2---1-2223----25-2---52---
-05-4----2--------4-------4-0--3----1---------------------------0-02-1----12------------1---42-2-2--
-4---10-1----13-4--------42--0---11---1--32----12--4-2-----01-----0-2-4-1-2--21------------------0--
--1---------0-----------3---0--0-------------------1----1--2-3--0-1-------1------23---0--5-3-10-----
---------31----3-----3-----------2-------30-1-00--3-12-----2-2-----3------1-3-02-----2-1-1-13------1
1----1-----1-1--------4---1-----0----------0-----2---------------0--1-20-40-1--1-3-----51---3--2---3
--3--0---3-70------23----2--13----2---2---3-2-------3-10----1-0-----0-41-11-1----2-----------1---2-1
1--2-23---------3---1---0--13---1-------------------1--1-0--1----3--4---------1--4---4-2-11------3--
-----45---5-1-----314----1-----------------1----3--2-----2-----------------1-----3-4-1---3---5-2----
-------3-2------------1-------1--------0-----0-0-----0----------0----10----1-41-1----4-11--1----1--4
-------4--------4------142-0--1-2----13---1-----2-------2-2-----1--0----2--1-2---------------3---1-2
-00-1--2-2-------------11---0--0----1-----1-------2----------0---------------1----0--3-------1------
-------------54---1-------2---1-3-2----2---------1---------1------10---1-------------1---42-0----3--
------1--------15--0------0----------------0-----0----------2-------0-----2-1--0-2-0-------1----1---
---------0-4----5--0-010----13-2-22---24-2----4-----------3-3-------------------------3----------0--
0--2-1-10-----------0--1---0----1-----1-2-------------------1--0-----3-2------1-11----1------32----1
------2-----3-4--2--133---1-3-----503-4--2---1-----1-0--------103--1--4--0-----5---1--2-4----10-0--2
--0--1----123--1---12-0--1--------------------------------------1-----------0---1--3-5-31--03---0---
-----1------10----4-6----113----22-3-2-----2---3------1-------2-2--1------30------3-------0---------
---21------10---3--1--0-1--0---0----0---3-4------------1--30-----0-------2-001------11---10----4--0-
0-0--3----4-----32--------1-0-100-1--0-1-----1-1-2----------2-----4-20-0---4-4-----3------1-0--111--
-0----1--3-----31-0--3-0--1--0--------------1-----------------------------------24-----023------11--
---23----0------1-0---0-----01------0231---11-1---21------1-1-------1--0------2------204------------
-------202-1----2-2-00-1--00----0--01-------20-----0--1----0---1-2---0-3-0----3-3-----0--1---01--3-0
0-0-3-3--1--------------2----00-0--0-----2----------------------4--------3-1-------1-------00------0
-----0-------------1--2--0-1------------2-------1-------------1-----1--1-2-1----2----2------11--23-0
1------00--0--2-------2---------11------2-623-430-----0---------0-1--------------0-0-------0--------
-----3-3----01-1-1--1-1--01-0--0----0---20-------0-----2--1--3----2--0---2---3----4--0-------2-----0
-23-0-1-------2----------10-3---1-1-------2-------1-----------------------10---2---0---0--------2---
-----------------------4-------1------------2---------1---1-------31-0-22--021-0----2-------02---5-2
1--01--1-------1--1-------------2-----011---2--20-2----1-------0-----------------------------0------
----1----2-2----3-----123-----3-4---3-40-----2-0------0---------01---2---------2-----2-----1----21--
01--4---0---------4---------4-------012---------0-0---0--3------------4-------021--0---------------0
------1--0--------0------1-3----2--0--1-----------1-------3---1------1-2-2-2----2--------11-3---00--
----2-----20-----0----------4--2--0-1-----111---02-1------4----1--41------3-----0--2-----0-1-----0--
1-----1-1------2-1-40----111----4-52--121-2----1---0------3-2-----0--4-3--32-------1---2-1--4--1--01
0---0-3-------2-----------1--3--011-------0---0---2-333------0-2----------0-2---0---0--20-----------
--1--1-2--2--03------54------1-3--4-5--3--1-----------2-1---2----1-------3-----------22------00-0---
----------0--31-----04-----2----1-13--3-----06------13-5---2--22---0-15-------------0-01-----0------
--1-20----10----5----2-4-----3----343-56--1----62--3-------2-23--2-1----13-4-1-1-3---2-5---3--11422-
-------------11-4--------2-0--4--3------3----------------1-0-------2------------1-0--------10------1
---0--1--0-0------3-----22---------0--2----0--1-----4---21-23---1----2--------1-----2--3--62--------
--0--01---1---1-20------1--24--1------3----1----143---------2--2-1------6---------0-------1---------
-0----0--0--2-------5--6-3-------5----22--1-4--2----0--5-------3-01-05-1-----4-----4-3---3--------01
0-------012-3--3402---20-0-0-5-3------------3---------0--------4--------2-----34------1-2------1----
-------1----3--1------------4---------01--0-------1--3-45-1-30-1-------8--2-------21-3-24--2-2-2----
-1-------11-----1--31--11-1-5--13------1--------------1-2-4-----0------3----01-2------0----0-----0--
-------1-----1--2--32--4-----4-------40-------3-3---054----1---0----------------24---3---------2----
--0--------1-2----4224-2--24-7-44-1---2---1---1-----------------2-0--1-----13-----2---------0-------
--1-----23-1-------0--1------------------11---2-1----21--3-3--2----2-----041--0------2-2-1-2--12----
----32---------2--6-1--13-042-2-01-------------2---2--2-----2-0-0--2-----1---2---1-2---3-----1-1---0
-1-2-------3-2--32-3--3-1--3---4-4-------11-----4-0-2--02142-------1--------1-----1--5-----0-----1--
1-------0-3--0-03-3---3--4-1--1---313-4------11---0---------1-1--0--4-1--1-----3-------52-----------
0----21------2-1--3-5--4--3---5------2-------3---1--1----01----------2145----10--2-------226------42
2---5---------1----4--3-----335------1-----2---3---1------0---------1-33-3---2-1-1-0-------34----2--
---1-0-0-2---3---24-2--1--11----4----2-----0-2--0--21-1-10-0---0-------1---1--1--2----2-13---4---1--
---------2-0--3--3------3------3------30-2-2--1--0----------0---1-0--2-----1----------------1-----0-
--0------1------3-----1----3------2-----01-----------1--------1-----4-----222----2---11-------02----
0---4---10--1-2------1-----1-----1----------2-01--------2--1------2-------1--3---------32-------1---
-------0-----5-----1--0-----2-------1----2-----1-3--13-2-----1-----1---4-3-----3-11-012------------0
------00-2-2-4-3------------4--4---2--10-3-4-1-0--------3-----4-3--------------3--------0-----3---2-
--2------------2------------1-------------0-1----------3-43-------1--2-22-1----3--0--3-3--1---------
---303----0-53---21----0-3-----2---3----1---1---2-4----2----4---------0---2------------4----52------
-1-1-----------0-----5-1-----1--4--11------0-1-----------4----------11-----2---2--0--1---23---------
--1--1-3--22-4-41-----3---27--3------1-1---5-2-11-2--1----5-2-----13--------4--------2------------00
3-----2------3----13----22------------0-------1----2-4-----6-14------60--5-5--0--0-3--5--110--------
--2----4231---1-1-5--1----26---3------011---0---3------------2-----2--2------41----1-----0-2-0---0--
-----3-----------5-6---------1--20------3-----------------------1---2---11-2-----2----5------1------
------0--3-20-----335--------72-3-2----1-2-62-0--0-13-2--2----12-----3-42-------11-0----42--0--100--
--2------0---30--2---41------0------0-----1---------1--1-2-------1-------10----------225-----01-----
0--1--0-----1-0----1--0-----6------2--0---1-2------------14----1-1-------13-4----1-----3-2---0---1-0
-----2------3------5-3---2---2---1--0----0----------------16----0---2--202-------------0------------
---------------21-----30----6-6--4-11---------021----0-0---------2-2-----1-----1--1--0-10---3---1--0
---0-----1---4---13------1------1--0------------1-------2--------0---01------------------020-----10-
---------------1-------25-------1-1-------1-----------3------21---------0----0--0------------1---1--
-0-1----2------23------1-----1-----0-0-------0--------02------20-2-1121----0-3-----4-------------23-
-------------------3-1---1------4---------0--------1--1--------------1--1---0-0-0-01--1-----2-------
-------0----33-----2-----------2-------0-0----------1-----33-1----0--3-3-21------------------022--43

